[
    {
        "CLs": 0.48937819974200253, 
        "CLsexp": 0.36792465459645773, 
        "CPUtime": 0.0, 
        "DM": 150.0, 
        "LogDM": 2.1760912590556813, 
        "backend": "jax", 
        "clsd1s": 0.18084776164091837, 
        "clsd2s": 0.08191716385682711, 
        "clsu1s": 0.6414515755123681, 
        "clsu2s": 0.8843734520699416, 
        "covqual": 3.0, 
        "dodgycov": 0.0, 
        "excludedXsec": -999007.0, 
        "expectedUpperLimit": -1.0, 
        "expectedUpperLimitMinus1Sig": -1.0, 
        "expectedUpperLimitMinus2Sig": -1.0, 
        "expectedUpperLimitPlus1Sig": -1.0, 
        "expectedUpperLimitPlus2Sig": -1.0, 
        "fID": -1.0, 
        "failedcov": 0.0, 
        "failedfit": 0.0, 
        "failedp0": 1.0, 
        "failedstatus": 0.0, 
        "fitstatus": 0.0, 
        "mLSP": 150.0, 
        "mNLSP": 300.0, 
        "mode": -1.0, 
        "nexp": -1.0, 
        "nofit": 0.0, 
        "optimizer": "scipy", 
        "p0": 0.5, 
        "p0d1s": -1.0, 
        "p0d2s": -1.0, 
        "p0exp": -1.0, 
        "p0u1s": -1.0, 
        "p0u2s": -1.0, 
        "p1": 0.5, 
        "seed": 0.0, 
        "sigma0": -1.0, 
        "sigma1": -1.0, 
        "upperLimit": -1.0, 
        "upperLimitEstimatedError": -1.0, 
        "xsec": -999007.0
    }, 
    {
        "CLs": 0.043317998342409084, 
        "CLsexp": 0.002452507539402815, 
        "CPUtime": 0.0, 
        "DM": 325.0, 
        "LogDM": 2.5118833609788744, 
        "backend": "jax", 
        "clsd1s": 0.00017642403602125505, 
        "clsd2s": 1.0828152341673829e-05, 
        "clsu1s": 0.02522390596438537, 
        "clsu2s": 0.15523857199876523, 
        "covqual": 3.0, 
        "dodgycov": 0.0, 
        "excludedXsec": -999007.0, 
        "expectedUpperLimit": -1.0, 
        "expectedUpperLimitMinus1Sig": -1.0, 
        "expectedUpperLimitMinus2Sig": -1.0, 
        "expectedUpperLimitPlus1Sig": -1.0, 
        "expectedUpperLimitPlus2Sig": -1.0, 
        "fID": -1.0, 
        "failedcov": 0.0, 
        "failedfit": 0.0, 
        "failedp0": 1.0, 
        "failedstatus": 0.0, 
        "fitstatus": 0.0, 
        "mLSP": 25.0, 
        "mNLSP": 350.0, 
        "mode": -1.0, 
        "nexp": -1.0, 
        "nofit": 0.0, 
        "optimizer": "scipy", 
        "p0": 0.5, 
        "p0d1s": -1.0, 
        "p0d2s": -1.0, 
        "p0exp": -1.0, 
        "p0u1s": -1.0, 
        "p0u2s": -1.0, 
        "p1": 0.5, 
        "seed": 0.0, 
        "sigma0": -1.0, 
        "sigma1": -1.0, 
        "upperLimit": -1.0, 
        "upperLimitEstimatedError": -1.0, 
        "xsec": -999007.0
    }, 
    {
        "CLs": 0.041891030786402654, 
        "CLsexp": 0.004418182495238415, 
        "CPUtime": 0.0, 
        "DM": 300.0, 
        "LogDM": 2.4771212547196626, 
        "backend": "jax", 
        "clsd1s": 0.00037737022546006525, 
        "clsd2s": 2.759616461301508e-05, 
        "clsu1s": 0.038508468314103275, 
        "clsu2s": 0.20321819005945446, 
        "covqual": 3.0, 
        "dodgycov": 0.0, 
        "excludedXsec": -999007.0, 
        "expectedUpperLimit": -1.0, 
        "expectedUpperLimitMinus1Sig": -1.0, 
        "expectedUpperLimitMinus2Sig": -1.0, 
        "expectedUpperLimitPlus1Sig": -1.0, 
        "expectedUpperLimitPlus2Sig": -1.0, 
        "fID": -1.0, 
        "failedcov": 0.0, 
        "failedfit": 0.0, 
        "failedp0": 1.0, 
        "failedstatus": 0.0, 
        "fitstatus": 0.0, 
        "mLSP": 0.0, 
        "mNLSP": 300.0, 
        "mode": -1.0, 
        "nexp": -1.0, 
        "nofit": 0.0, 
        "optimizer": "scipy", 
        "p0": 0.5, 
        "p0d1s": -1.0, 
        "p0d2s": -1.0, 
        "p0exp": -1.0, 
        "p0u1s": -1.0, 
        "p0u2s": -1.0, 
        "p1": 0.5, 
        "seed": 0.0, 
        "sigma0": -1.0, 
        "sigma1": -1.0, 
        "upperLimit": -1.0, 
        "upperLimitEstimatedError": -1.0, 
        "xsec": -999007.0
    }, 
    {
        "CLs": 0.10287983236922252, 
        "CLsexp": 0.018262656216318285, 
        "CPUtime": 0.0, 
        "DM": 250.0, 
        "LogDM": 2.3979400086720375, 
        "backend": "jax", 
        "clsd1s": 0.0024541312036422042, 
        "clsd2s": 0.00028552434836072823, 
        "clsu1s": 0.10325793249809383, 
        "clsu2s": 0.36769546548958926, 
        "covqual": 3.0, 
        "dodgycov": 0.0, 
        "excludedXsec": -999007.0, 
        "expectedUpperLimit": -1.0, 
        "expectedUpperLimitMinus1Sig": -1.0, 
        "expectedUpperLimitMinus2Sig": -1.0, 
        "expectedUpperLimitPlus1Sig": -1.0, 
        "expectedUpperLimitPlus2Sig": -1.0, 
        "fID": -1.0, 
        "failedcov": 0.0, 
        "failedfit": 0.0, 
        "failedp0": 1.0, 
        "failedstatus": 0.0, 
        "fitstatus": 0.0, 
        "mLSP": 50.0, 
        "mNLSP": 300.0, 
        "mode": -1.0, 
        "nexp": -1.0, 
        "nofit": 0.0, 
        "optimizer": "scipy", 
        "p0": 0.5, 
        "p0d1s": -1.0, 
        "p0d2s": -1.0, 
        "p0exp": -1.0, 
        "p0u1s": -1.0, 
        "p0u2s": -1.0, 
        "p1": 0.5, 
        "seed": 0.0, 
        "sigma0": -1.0, 
        "sigma1": -1.0, 
        "upperLimit": -1.0, 
        "upperLimitEstimatedError": -1.0, 
        "xsec": -999007.0
    }, 
    {
        "CLs": 0.08421066147506859, 
        "CLsexp": 0.12138857727117386, 
        "CPUtime": 0.0, 
        "DM": 150.0, 
        "LogDM": 2.1760912590556813, 
        "backend": "jax", 
        "clsd1s": 0.03404902584403104, 
        "clsd2s": 0.008499708326836917, 
        "clsu1s": 0.34648402343884144, 
        "clsu2s": 0.6897064166977139, 
        "covqual": 3.0, 
        "dodgycov": 0.0, 
        "excludedXsec": -999007.0, 
        "expectedUpperLimit": -1.0, 
        "expectedUpperLimitMinus1Sig": -1.0, 
        "expectedUpperLimitMinus2Sig": -1.0, 
        "expectedUpperLimitPlus1Sig": -1.0, 
        "expectedUpperLimitPlus2Sig": -1.0, 
        "fID": -1.0, 
        "failedcov": 0.0, 
        "failedfit": 0.0, 
        "failedp0": 1.0, 
        "failedstatus": 0.0, 
        "fitstatus": 0.0, 
        "mLSP": 50.0, 
        "mNLSP": 200.0, 
        "mode": -1.0, 
        "nexp": -1.0, 
        "nofit": 0.0, 
        "optimizer": "scipy", 
        "p0": 0.5, 
        "p0d1s": -1.0, 
        "p0d2s": -1.0, 
        "p0exp": -1.0, 
        "p0u1s": -1.0, 
        "p0u2s": -1.0, 
        "p1": 0.5, 
        "seed": 0.0, 
        "sigma0": -1.0, 
        "sigma1": -1.0, 
        "upperLimit": -1.0, 
        "upperLimitEstimatedError": -1.0, 
        "xsec": -999007.0
    }, 
    {
        "CLs": 0.13833069965364458, 
        "CLsexp": 0.006205811122895446, 
        "CPUtime": 0.0, 
        "DM": 350.0, 
        "LogDM": 2.5440680443502757, 
        "backend": "jax", 
        "clsd1s": 0.0005875891724817556, 
        "clsd2s": 4.77408468836242e-05, 
        "clsu1s": 0.04899266224290235, 
        "clsu2s": 0.2360207003238536, 
        "covqual": 3.0, 
        "dodgycov": 0.0, 
        "excludedXsec": -999007.0, 
        "expectedUpperLimit": -1.0, 
        "expectedUpperLimitMinus1Sig": -1.0, 
        "expectedUpperLimitMinus2Sig": -1.0, 
        "expectedUpperLimitPlus1Sig": -1.0, 
        "expectedUpperLimitPlus2Sig": -1.0, 
        "fID": -1.0, 
        "failedcov": 0.0, 
        "failedfit": 0.0, 
        "failedp0": 1.0, 
        "failedstatus": 0.0, 
        "fitstatus": 0.0, 
        "mLSP": 50.0, 
        "mNLSP": 400.0, 
        "mode": -1.0, 
        "nexp": -1.0, 
        "nofit": 0.0, 
        "optimizer": "scipy", 
        "p0": 0.5, 
        "p0d1s": -1.0, 
        "p0d2s": -1.0, 
        "p0exp": -1.0, 
        "p0u1s": -1.0, 
        "p0u2s": -1.0, 
        "p1": 0.5, 
        "seed": 0.0, 
        "sigma0": -1.0, 
        "sigma1": -1.0, 
        "upperLimit": -1.0, 
        "upperLimitEstimatedError": -1.0, 
        "xsec": -999007.0
    }, 
    {
        "CLs": 0.09627043212330928, 
        "CLsexp": 0.003139593646211822, 
        "CPUtime": 0.0, 
        "DM": 375.0, 
        "LogDM": 2.574031267727719, 
        "backend": "jax", 
        "clsd1s": 0.0002424832598319769, 
        "clsd2s": 1.600089786105836e-05, 
        "clsu1s": 0.030150096337041757, 
        "clsu2s": 0.17407049264968347, 
        "covqual": 3.0, 
        "dodgycov": 0.0, 
        "excludedXsec": -999007.0, 
        "expectedUpperLimit": -1.0, 
        "expectedUpperLimitMinus1Sig": -1.0, 
        "expectedUpperLimitMinus2Sig": -1.0, 
        "expectedUpperLimitPlus1Sig": -1.0, 
        "expectedUpperLimitPlus2Sig": -1.0, 
        "fID": -1.0, 
        "failedcov": 0.0, 
        "failedfit": 0.0, 
        "failedp0": 1.0, 
        "failedstatus": 0.0, 
        "fitstatus": 0.0, 
        "mLSP": 25.0, 
        "mNLSP": 400.0, 
        "mode": -1.0, 
        "nexp": -1.0, 
        "nofit": 0.0, 
        "optimizer": "scipy", 
        "p0": 0.5, 
        "p0d1s": -1.0, 
        "p0d2s": -1.0, 
        "p0exp": -1.0, 
        "p0u1s": -1.0, 
        "p0u2s": -1.0, 
        "p1": 0.5, 
        "seed": 0.0, 
        "sigma0": -1.0, 
        "sigma1": -1.0, 
        "upperLimit": -1.0, 
        "upperLimitEstimatedError": -1.0, 
        "xsec": -999007.0
    }, 
    {
        "CLs": 0.6933015901723463, 
        "CLsexp": 0.6163211271328497, 
        "CPUtime": 0.0, 
        "DM": 150.0, 
        "LogDM": 2.1760912590556813, 
        "backend": "jax", 
        "clsd1s": 0.42021044017982107, 
        "clsd2s": 0.27212663810058846, 
        "clsu1s": 0.8214055978977924, 
        "clsu2s": 0.9547752311841816, 
        "covqual": 3.0, 
        "dodgycov": 0.0, 
        "excludedXsec": -999007.0, 
        "expectedUpperLimit": -1.0, 
        "expectedUpperLimitMinus1Sig": -1.0, 
        "expectedUpperLimitMinus2Sig": -1.0, 
        "expectedUpperLimitPlus1Sig": -1.0, 
        "expectedUpperLimitPlus2Sig": -1.0, 
        "fID": -1.0, 
        "failedcov": 0.0, 
        "failedfit": 0.0, 
        "failedp0": 1.0, 
        "failedstatus": 0.0, 
        "fitstatus": 0.0, 
        "mLSP": 250.0, 
        "mNLSP": 400.0, 
        "mode": -1.0, 
        "nexp": -1.0, 
        "nofit": 0.0, 
        "optimizer": "scipy", 
        "p0": 0.5, 
        "p0d1s": -1.0, 
        "p0d2s": -1.0, 
        "p0exp": -1.0, 
        "p0u1s": -1.0, 
        "p0u2s": -1.0, 
        "p1": 0.5, 
        "seed": 0.0, 
        "sigma0": -1.0, 
        "sigma1": -1.0, 
        "upperLimit": -1.0, 
        "upperLimitEstimatedError": -1.0, 
        "xsec": -999007.0
    }, 
    {
        "CLs": 0.1888534906082174, 
        "CLsexp": 0.013288007869017326, 
        "CPUtime": 0.0, 
        "DM": 300.0, 
        "LogDM": 2.4771212547196626, 
        "backend": "jax", 
        "clsd1s": 0.0016042218011850073, 
        "clsd2s": 0.00016718643992102145, 
        "clsu1s": 0.0831738688512342, 
        "clsu2s": 0.3244338966402001, 
        "covqual": 3.0, 
        "dodgycov": 0.0, 
        "excludedXsec": -999007.0, 
        "expectedUpperLimit": -1.0, 
        "expectedUpperLimitMinus1Sig": -1.0, 
        "expectedUpperLimitMinus2Sig": -1.0, 
        "expectedUpperLimitPlus1Sig": -1.0, 
        "expectedUpperLimitPlus2Sig": -1.0, 
        "fID": -1.0, 
        "failedcov": 0.0, 
        "failedfit": 0.0, 
        "failedp0": 1.0, 
        "failedstatus": 0.0, 
        "fitstatus": 0.0, 
        "mLSP": 100.0, 
        "mNLSP": 400.0, 
        "mode": -1.0, 
        "nexp": -1.0, 
        "nofit": 0.0, 
        "optimizer": "scipy", 
        "p0": 0.5, 
        "p0d1s": -1.0, 
        "p0d2s": -1.0, 
        "p0exp": -1.0, 
        "p0u1s": -1.0, 
        "p0u2s": -1.0, 
        "p1": 0.5, 
        "seed": 0.0, 
        "sigma0": -1.0, 
        "sigma1": -1.0, 
        "upperLimit": -1.0, 
        "upperLimitEstimatedError": -1.0, 
        "xsec": -999007.0
    }, 
    {
        "CLs": 0.0547291886571729, 
        "CLsexp": 0.00354864840294843, 
        "CPUtime": 0.0, 
        "DM": 400.0, 
        "LogDM": 2.6020599913279625, 
        "backend": "jax", 
        "clsd1s": 0.0002840545768752506, 
        "clsd2s": 1.9440584232052802e-05, 
        "clsu1s": 0.03292366187232183, 
        "clsu2s": 0.18409413454836498, 
        "covqual": 3.0, 
        "dodgycov": 0.0, 
        "excludedXsec": -999007.0, 
        "expectedUpperLimit": -1.0, 
        "expectedUpperLimitMinus1Sig": -1.0, 
        "expectedUpperLimitMinus2Sig": -1.0, 
        "expectedUpperLimitPlus1Sig": -1.0, 
        "expectedUpperLimitPlus2Sig": -1.0, 
        "fID": -1.0, 
        "failedcov": 0.0, 
        "failedfit": 0.0, 
        "failedp0": 1.0, 
        "failedstatus": 0.0, 
        "fitstatus": 0.0, 
        "mLSP": 0.0, 
        "mNLSP": 400.0, 
        "mode": -1.0, 
        "nexp": -1.0, 
        "nofit": 0.0, 
        "optimizer": "scipy", 
        "p0": 0.5, 
        "p0d1s": -1.0, 
        "p0d2s": -1.0, 
        "p0exp": -1.0, 
        "p0u1s": -1.0, 
        "p0u2s": -1.0, 
        "p1": 0.5, 
        "seed": 0.0, 
        "sigma0": -1.0, 
        "sigma1": -1.0, 
        "upperLimit": -1.0, 
        "upperLimitEstimatedError": -1.0, 
        "xsec": -999007.0
    }, 
    {
        "CLs": 0.11037165772603279, 
        "CLsexp": 0.002977659314927579, 
        "CPUtime": 0.0, 
        "DM": 425.0, 
        "LogDM": 2.6283889300503116, 
        "backend": "jax", 
        "clsd1s": 0.0002264725156893603, 
        "clsd2s": 1.4712190723850207e-05, 
        "clsu1s": 0.02902161846048569, 
        "clsu2s": 0.1698793286453449, 
        "covqual": 3.0, 
        "dodgycov": 0.0, 
        "excludedXsec": -999007.0, 
        "expectedUpperLimit": -1.0, 
        "expectedUpperLimitMinus1Sig": -1.0, 
        "expectedUpperLimitMinus2Sig": -1.0, 
        "expectedUpperLimitPlus1Sig": -1.0, 
        "expectedUpperLimitPlus2Sig": -1.0, 
        "fID": -1.0, 
        "failedcov": 0.0, 
        "failedfit": 0.0, 
        "failedp0": 1.0, 
        "failedstatus": 0.0, 
        "fitstatus": 0.0, 
        "mLSP": 25.0, 
        "mNLSP": 450.0, 
        "mode": -1.0, 
        "nexp": -1.0, 
        "nofit": 0.0, 
        "optimizer": "scipy", 
        "p0": 0.5, 
        "p0d1s": -1.0, 
        "p0d2s": -1.0, 
        "p0exp": -1.0, 
        "p0u1s": -1.0, 
        "p0u2s": -1.0, 
        "p1": 0.5, 
        "seed": 0.0, 
        "sigma0": -1.0, 
        "sigma1": -1.0, 
        "upperLimit": -1.0, 
        "upperLimitEstimatedError": -1.0, 
        "xsec": -999007.0
    }, 
    {
        "CLs": 0.2840370281820296, 
        "CLsexp": 0.026781418406546315, 
        "CPUtime": 0.0, 
        "DM": 400.0, 
        "LogDM": 2.6020599913279625, 
        "backend": "jax", 
        "clsd1s": 0.004115398459179226, 
        "clsd2s": 0.0005497168495053837, 
        "clsu1s": 0.13340829106500537, 
        "clsu2s": 0.42466610972538366, 
        "covqual": 3.0, 
        "dodgycov": 0.0, 
        "excludedXsec": -999007.0, 
        "expectedUpperLimit": -1.0, 
        "expectedUpperLimitMinus1Sig": -1.0, 
        "expectedUpperLimitMinus2Sig": -1.0, 
        "expectedUpperLimitPlus1Sig": -1.0, 
        "expectedUpperLimitPlus2Sig": -1.0, 
        "fID": -1.0, 
        "failedcov": 0.0, 
        "failedfit": 0.0, 
        "failedp0": 1.0, 
        "failedstatus": 0.0, 
        "fitstatus": 0.0, 
        "mLSP": 100.0, 
        "mNLSP": 500.0, 
        "mode": -1.0, 
        "nexp": -1.0, 
        "nofit": 0.0, 
        "optimizer": "scipy", 
        "p0": 0.5, 
        "p0d1s": -1.0, 
        "p0d2s": -1.0, 
        "p0exp": -1.0, 
        "p0u1s": -1.0, 
        "p0u2s": -1.0, 
        "p1": 0.5, 
        "seed": 0.0, 
        "sigma0": -1.0, 
        "sigma1": -1.0, 
        "upperLimit": -1.0, 
        "upperLimitEstimatedError": -1.0, 
        "xsec": -999007.0
    }, 
    {
        "CLs": 0.3989798050031964, 
        "CLsexp": 0.04041600198008903, 
        "CPUtime": 0.0, 
        "DM": 600.0, 
        "LogDM": 2.7781512503836434, 
        "backend": "jax", 
        "clsd1s": 0.007224599979645679, 
        "clsd2s": 0.0011281992012567613, 
        "clsu1s": 0.17469712979101587, 
        "clsu2s": 0.4914522560946993, 
        "covqual": 3.0, 
        "dodgycov": 0.0, 
        "excludedXsec": -999007.0, 
        "expectedUpperLimit": -1.0, 
        "expectedUpperLimitMinus1Sig": -1.0, 
        "expectedUpperLimitMinus2Sig": -1.0, 
        "expectedUpperLimitPlus1Sig": -1.0, 
        "expectedUpperLimitPlus2Sig": -1.0, 
        "fID": -1.0, 
        "failedcov": 0.0, 
        "failedfit": 0.0, 
        "failedp0": 1.0, 
        "failedstatus": 0.0, 
        "fitstatus": 0.0, 
        "mLSP": 0.0, 
        "mNLSP": 600.0, 
        "mode": -1.0, 
        "nexp": -1.0, 
        "nofit": 0.0, 
        "optimizer": "scipy", 
        "p0": 0.5, 
        "p0d1s": -1.0, 
        "p0d2s": -1.0, 
        "p0exp": -1.0, 
        "p0u1s": -1.0, 
        "p0u2s": -1.0, 
        "p1": 0.5, 
        "seed": 0.0, 
        "sigma0": -1.0, 
        "sigma1": -1.0, 
        "upperLimit": -1.0, 
        "upperLimitEstimatedError": -1.0, 
        "xsec": -999007.0
    }, 
    {
        "CLs": 0.6576776312752446, 
        "CLsexp": 0.4794982337152197, 
        "CPUtime": 0.0, 
        "DM": 400.0, 
        "LogDM": 2.6020599913279625, 
        "backend": "jax", 
        "clsd1s": 0.2767057503670783, 
        "clsd2s": 0.1491679286888597, 
        "clsu1s": 0.7312067439830666, 
        "clsu2s": 0.9229732407909886, 
        "covqual": 3.0, 
        "dodgycov": 0.0, 
        "excludedXsec": -999007.0, 
        "expectedUpperLimit": -1.0, 
        "expectedUpperLimitMinus1Sig": -1.0, 
        "expectedUpperLimitMinus2Sig": -1.0, 
        "expectedUpperLimitPlus1Sig": -1.0, 
        "expectedUpperLimitPlus2Sig": -1.0, 
        "fID": -1.0, 
        "failedcov": 0.0, 
        "failedfit": 0.0, 
        "failedp0": 1.0, 
        "failedstatus": 0.0, 
        "fitstatus": 0.0, 
        "mLSP": 250.0, 
        "mNLSP": 650.0, 
        "mode": -1.0, 
        "nexp": -1.0, 
        "nofit": 0.0, 
        "optimizer": "scipy", 
        "p0": 0.5, 
        "p0d1s": -1.0, 
        "p0d2s": -1.0, 
        "p0exp": -1.0, 
        "p0u1s": -1.0, 
        "p0u2s": -1.0, 
        "p1": 0.5, 
        "seed": 0.0, 
        "sigma0": -1.0, 
        "sigma1": -1.0, 
        "upperLimit": -1.0, 
        "upperLimitEstimatedError": -1.0, 
        "xsec": -999007.0
    }, 
    {
        "CLs": 0.6462701093042912, 
        "CLsexp": 0.4526593670307629, 
        "CPUtime": 0.0, 
        "DM": 350.0, 
        "LogDM": 2.5440680443502757, 
        "backend": "jax", 
        "clsd1s": 0.2519545647794701, 
        "clsd2s": 0.13058312376848247, 
        "clsu1s": 0.7111519089884352, 
        "clsu2s": 0.9149855442776111, 
        "covqual": 3.0, 
        "dodgycov": 0.0, 
        "excludedXsec": -999007.0, 
        "expectedUpperLimit": -1.0, 
        "expectedUpperLimitMinus1Sig": -1.0, 
        "expectedUpperLimitMinus2Sig": -1.0, 
        "expectedUpperLimitPlus1Sig": -1.0, 
        "expectedUpperLimitPlus2Sig": -1.0, 
        "fID": -1.0, 
        "failedcov": 0.0, 
        "failedfit": 0.0, 
        "failedp0": 1.0, 
        "failedstatus": 0.0, 
        "fitstatus": 0.0, 
        "mLSP": 250.0, 
        "mNLSP": 600.0, 
        "mode": -1.0, 
        "nexp": -1.0, 
        "nofit": 0.0, 
        "optimizer": "scipy", 
        "p0": 0.5, 
        "p0d1s": -1.0, 
        "p0d2s": -1.0, 
        "p0exp": -1.0, 
        "p0u1s": -1.0, 
        "p0u2s": -1.0, 
        "p1": 0.5, 
        "seed": 0.0, 
        "sigma0": -1.0, 
        "sigma1": -1.0, 
        "upperLimit": -1.0, 
        "upperLimitEstimatedError": -1.0, 
        "xsec": -999007.0
    }, 
    {
        "CLs": 0.8923511864036275, 
        "CLsexp": 0.8793649683705571, 
        "CPUtime": 0.0, 
        "DM": 1000.0, 
        "LogDM": 3.0, 
        "backend": "jax", 
        "clsd1s": 0.7860245190430043, 
        "clsd2s": 0.6904385554577043, 
        "clsu1s": 0.9530502991062964, 
        "clsu2s": 0.9902433180442018, 
        "covqual": 3.0, 
        "dodgycov": 0.0, 
        "excludedXsec": -999007.0, 
        "expectedUpperLimit": -1.0, 
        "expectedUpperLimitMinus1Sig": -1.0, 
        "expectedUpperLimitMinus2Sig": -1.0, 
        "expectedUpperLimitPlus1Sig": -1.0, 
        "expectedUpperLimitPlus2Sig": -1.0, 
        "fID": -1.0, 
        "failedcov": 0.0, 
        "failedfit": 0.0, 
        "failedp0": 1.0, 
        "failedstatus": 0.0, 
        "fitstatus": 0.0, 
        "mLSP": 200.0, 
        "mNLSP": 1200.0, 
        "mode": -1.0, 
        "nexp": -1.0, 
        "nofit": 0.0, 
        "optimizer": "scipy", 
        "p0": 0.5, 
        "p0d1s": -1.0, 
        "p0d2s": -1.0, 
        "p0exp": -1.0, 
        "p0u1s": -1.0, 
        "p0u2s": -1.0, 
        "p1": 0.5, 
        "seed": 0.0, 
        "sigma0": -1.0, 
        "sigma1": -1.0, 
        "upperLimit": -1.0, 
        "upperLimitEstimatedError": -1.0, 
        "xsec": -999007.0
    }, 
    {
        "CLs": 0.5845898830145488, 
        "CLsexp": 0.2893990658146359, 
        "CPUtime": 0.0, 
        "DM": 200.0, 
        "LogDM": 2.3010299956639813, 
        "backend": "jax", 
        "clsd1s": 0.1243325619022557, 
        "clsd2s": 0.04873611100227751, 
        "clsu1s": 0.5661181115599845, 
        "clsu2s": 0.8457761127108715, 
        "covqual": 3.0, 
        "dodgycov": 0.0, 
        "excludedXsec": -999007.0, 
        "expectedUpperLimit": -1.0, 
        "expectedUpperLimitMinus1Sig": -1.0, 
        "expectedUpperLimitMinus2Sig": -1.0, 
        "expectedUpperLimitPlus1Sig": -1.0, 
        "expectedUpperLimitPlus2Sig": -1.0, 
        "fID": -1.0, 
        "failedcov": 0.0, 
        "failedfit": 0.0, 
        "failedp0": 1.0, 
        "failedstatus": 0.0, 
        "fitstatus": 0.0, 
        "mLSP": 200.0, 
        "mNLSP": 400.0, 
        "mode": -1.0, 
        "nexp": -1.0, 
        "nofit": 0.0, 
        "optimizer": "scipy", 
        "p0": 0.5, 
        "p0d1s": -1.0, 
        "p0d2s": -1.0, 
        "p0exp": -1.0, 
        "p0u1s": -1.0, 
        "p0u2s": -1.0, 
        "p1": 0.5, 
        "seed": 0.0, 
        "sigma0": -1.0, 
        "sigma1": -1.0, 
        "upperLimit": -1.0, 
        "upperLimitEstimatedError": -1.0, 
        "xsec": -999007.0
    }, 
    {
        "CLs": 0.760791337651181, 
        "CLsexp": 0.6855791456730611, 
        "CPUtime": 0.0, 
        "DM": 900.0, 
        "LogDM": 2.9542425094393248, 
        "backend": "jax", 
        "clsd1s": 0.5044345921506742, 
        "clsd2s": 0.3555712464695466, 
        "clsu1s": 0.8606750997520137, 
        "clsu2s": 0.9666507723106829, 
        "covqual": 3.0, 
        "dodgycov": 0.0, 
        "excludedXsec": -999007.0, 
        "expectedUpperLimit": -1.0, 
        "expectedUpperLimitMinus1Sig": -1.0, 
        "expectedUpperLimitMinus2Sig": -1.0, 
        "expectedUpperLimitPlus1Sig": -1.0, 
        "expectedUpperLimitPlus2Sig": -1.0, 
        "fID": -1.0, 
        "failedcov": 0.0, 
        "failedfit": 0.0, 
        "failedp0": 1.0, 
        "failedstatus": 0.0, 
        "fitstatus": 0.0, 
        "mLSP": 100.0, 
        "mNLSP": 1000.0, 
        "mode": -1.0, 
        "nexp": -1.0, 
        "nofit": 0.0, 
        "optimizer": "scipy", 
        "p0": 0.5, 
        "p0d1s": -1.0, 
        "p0d2s": -1.0, 
        "p0exp": -1.0, 
        "p0u1s": -1.0, 
        "p0u2s": -1.0, 
        "p1": 0.5, 
        "seed": 0.0, 
        "sigma0": -1.0, 
        "sigma1": -1.0, 
        "upperLimit": -1.0, 
        "upperLimitEstimatedError": -1.0, 
        "xsec": -999007.0
    }, 
    {
        "CLs": 0.6255018777001209, 
        "CLsexp": 0.4012837760346074, 
        "CPUtime": 0.0, 
        "DM": 300.0, 
        "LogDM": 2.4771212547196626, 
        "backend": "jax", 
        "clsd1s": 0.20757763361216164, 
        "clsd2s": 0.09935828448284793, 
        "clsu1s": 0.6701451201574052, 
        "clsu2s": 0.8975307429518046, 
        "covqual": 3.0, 
        "dodgycov": 0.0, 
        "excludedXsec": -999007.0, 
        "expectedUpperLimit": -1.0, 
        "expectedUpperLimitMinus1Sig": -1.0, 
        "expectedUpperLimitMinus2Sig": -1.0, 
        "expectedUpperLimitPlus1Sig": -1.0, 
        "expectedUpperLimitPlus2Sig": -1.0, 
        "fID": -1.0, 
        "failedcov": 0.0, 
        "failedfit": 0.0, 
        "failedp0": 1.0, 
        "failedstatus": 0.0, 
        "fitstatus": 0.0, 
        "mLSP": 300.0, 
        "mNLSP": 600.0, 
        "mode": -1.0, 
        "nexp": -1.0, 
        "nofit": 0.0, 
        "optimizer": "scipy", 
        "p0": 0.5, 
        "p0d1s": -1.0, 
        "p0d2s": -1.0, 
        "p0exp": -1.0, 
        "p0u1s": -1.0, 
        "p0u2s": -1.0, 
        "p1": 0.5, 
        "seed": 0.0, 
        "sigma0": -1.0, 
        "sigma1": -1.0, 
        "upperLimit": -1.0, 
        "upperLimitEstimatedError": -1.0, 
        "xsec": -999007.0
    }, 
    {
        "CLs": 0.5482167270977167, 
        "CLsexp": 0.175903888788575, 
        "CPUtime": 0.0, 
        "DM": 500.0, 
        "LogDM": 2.6989700043360187, 
        "backend": "jax", 
        "clsd1s": 0.05861404312879502, 
        "clsd2s": 0.01753914753653141, 
        "clsu1s": 0.4301044672345824, 
        "clsu2s": 0.7582812492046113, 
        "covqual": 3.0, 
        "dodgycov": 0.0, 
        "excludedXsec": -999007.0, 
        "expectedUpperLimit": -1.0, 
        "expectedUpperLimitMinus1Sig": -1.0, 
        "expectedUpperLimitMinus2Sig": -1.0, 
        "expectedUpperLimitPlus1Sig": -1.0, 
        "expectedUpperLimitPlus2Sig": -1.0, 
        "fID": -1.0, 
        "failedcov": 0.0, 
        "failedfit": 0.0, 
        "failedp0": 1.0, 
        "failedstatus": 0.0, 
        "fitstatus": 0.0, 
        "mLSP": 200.0, 
        "mNLSP": 700.0, 
        "mode": -1.0, 
        "nexp": -1.0, 
        "nofit": 0.0, 
        "optimizer": "scipy", 
        "p0": 0.5, 
        "p0d1s": -1.0, 
        "p0d2s": -1.0, 
        "p0exp": -1.0, 
        "p0u1s": -1.0, 
        "p0u2s": -1.0, 
        "p1": 0.5, 
        "seed": 0.0, 
        "sigma0": -1.0, 
        "sigma1": -1.0, 
        "upperLimit": -1.0, 
        "upperLimitEstimatedError": -1.0, 
        "xsec": -999007.0
    }, 
    {
        "CLs": 0.43472617513676876, 
        "CLsexp": 0.039988805427351025, 
        "CPUtime": 0.0, 
        "DM": 350.0, 
        "LogDM": 2.5440680443502757, 
        "backend": "jax", 
        "clsd1s": 0.0071196530680201, 
        "clsd2s": 0.0011072111171856946, 
        "clsu1s": 0.17349900074765617, 
        "clsu2s": 0.48966141101547106, 
        "covqual": 3.0, 
        "dodgycov": 0.0, 
        "excludedXsec": -999007.0, 
        "expectedUpperLimit": -1.0, 
        "expectedUpperLimitMinus1Sig": -1.0, 
        "expectedUpperLimitMinus2Sig": -1.0, 
        "expectedUpperLimitPlus1Sig": -1.0, 
        "expectedUpperLimitPlus2Sig": -1.0, 
        "fID": -1.0, 
        "failedcov": 0.0, 
        "failedfit": 0.0, 
        "failedp0": 1.0, 
        "failedstatus": 0.0, 
        "fitstatus": 0.0, 
        "mLSP": 150.0, 
        "mNLSP": 500.0, 
        "mode": -1.0, 
        "nexp": -1.0, 
        "nofit": 0.0, 
        "optimizer": "scipy", 
        "p0": 0.5, 
        "p0d1s": -1.0, 
        "p0d2s": -1.0, 
        "p0exp": -1.0, 
        "p0u1s": -1.0, 
        "p0u2s": -1.0, 
        "p1": 0.5, 
        "seed": 0.0, 
        "sigma0": -1.0, 
        "sigma1": -1.0, 
        "upperLimit": -1.0, 
        "upperLimitEstimatedError": -1.0, 
        "xsec": -999007.0
    }, 
    {
        "CLs": 0.7421858615012588, 
        "CLsexp": 0.6526286044074636, 
        "CPUtime": 0.0, 
        "DM": 600.0, 
        "LogDM": 2.7781512503836434, 
        "backend": "jax", 
        "clsd1s": 0.46335330210776654, 
        "clsd2s": 0.31386892886155565, 
        "clsu1s": 0.8424624885686939, 
        "clsu2s": 0.9612849801429709, 
        "covqual": 3.0, 
        "dodgycov": 0.0, 
        "excludedXsec": -999007.0, 
        "expectedUpperLimit": -1.0, 
        "expectedUpperLimitMinus1Sig": -1.0, 
        "expectedUpperLimitMinus2Sig": -1.0, 
        "expectedUpperLimitPlus1Sig": -1.0, 
        "expectedUpperLimitPlus2Sig": -1.0, 
        "fID": -1.0, 
        "failedcov": 0.0, 
        "failedfit": 0.0, 
        "failedp0": 1.0, 
        "failedstatus": 0.0, 
        "fitstatus": 0.0, 
        "mLSP": 250.0, 
        "mNLSP": 850.0, 
        "mode": -1.0, 
        "nexp": -1.0, 
        "nofit": 0.0, 
        "optimizer": "scipy", 
        "p0": 0.5, 
        "p0d1s": -1.0, 
        "p0d2s": -1.0, 
        "p0exp": -1.0, 
        "p0u1s": -1.0, 
        "p0u2s": -1.0, 
        "p1": 0.5, 
        "seed": 0.0, 
        "sigma0": -1.0, 
        "sigma1": -1.0, 
        "upperLimit": -1.0, 
        "upperLimitEstimatedError": -1.0, 
        "xsec": -999007.0
    }, 
    {
        "CLs": 0.8241465621616891, 
        "CLsexp": 0.7866235862501721, 
        "CPUtime": 0.0, 
        "DM": 200.0, 
        "LogDM": 2.3010299956639813, 
        "backend": "jax", 
        "clsd1s": 0.642387276042654, 
        "clsd2s": 0.5091242456920881, 
        "clsu1s": 0.9117447238797114, 
        "clsu2s": 0.980427353742107, 
        "covqual": 3.0, 
        "dodgycov": 0.0, 
        "excludedXsec": -999007.0, 
        "expectedUpperLimit": -1.0, 
        "expectedUpperLimitMinus1Sig": -1.0, 
        "expectedUpperLimitMinus2Sig": -1.0, 
        "expectedUpperLimitPlus1Sig": -1.0, 
        "expectedUpperLimitPlus2Sig": -1.0, 
        "fID": -1.0, 
        "failedcov": 0.0, 
        "failedfit": 0.0, 
        "failedp0": 1.0, 
        "failedstatus": 0.0, 
        "fitstatus": 0.0, 
        "mLSP": 400.0, 
        "mNLSP": 600.0, 
        "mode": -1.0, 
        "nexp": -1.0, 
        "nofit": 0.0, 
        "optimizer": "scipy", 
        "p0": 0.5, 
        "p0d1s": -1.0, 
        "p0d2s": -1.0, 
        "p0exp": -1.0, 
        "p0u1s": -1.0, 
        "p0u2s": -1.0, 
        "p1": 0.5, 
        "seed": 0.0, 
        "sigma0": -1.0, 
        "sigma1": -1.0, 
        "upperLimit": -1.0, 
        "upperLimitEstimatedError": -1.0, 
        "xsec": -999007.0
    }, 
    {
        "CLs": 0.8440362722770591, 
        "CLsexp": 0.8152167947685725, 
        "CPUtime": 0.0, 
        "DM": 1000.0, 
        "LogDM": 3.0, 
        "backend": "jax", 
        "clsd1s": 0.6848628827993714, 
        "clsd2s": 0.5604962286580821, 
        "clsu1s": 0.9250080609038371, 
        "clsu2s": 0.9837065704456037, 
        "covqual": 3.0, 
        "dodgycov": 0.0, 
        "excludedXsec": -999007.0, 
        "expectedUpperLimit": -1.0, 
        "expectedUpperLimitMinus1Sig": -1.0, 
        "expectedUpperLimitMinus2Sig": -1.0, 
        "expectedUpperLimitPlus1Sig": -1.0, 
        "expectedUpperLimitPlus2Sig": -1.0, 
        "fID": -1.0, 
        "failedcov": 0.0, 
        "failedfit": 0.0, 
        "failedp0": 1.0, 
        "failedstatus": 0.0, 
        "fitstatus": 0.0, 
        "mLSP": 100.0, 
        "mNLSP": 1100.0, 
        "mode": -1.0, 
        "nexp": -1.0, 
        "nofit": 0.0, 
        "optimizer": "scipy", 
        "p0": 0.5, 
        "p0d1s": -1.0, 
        "p0d2s": -1.0, 
        "p0exp": -1.0, 
        "p0u1s": -1.0, 
        "p0u2s": -1.0, 
        "p1": 0.5, 
        "seed": 0.0, 
        "sigma0": -1.0, 
        "sigma1": -1.0, 
        "upperLimit": -1.0, 
        "upperLimitEstimatedError": -1.0, 
        "xsec": -999007.0
    }, 
    {
        "CLs": 0.9052951749004937, 
        "CLsexp": 0.8953879047130503, 
        "CPUtime": 0.0, 
        "DM": 900.0, 
        "LogDM": 2.9542425094393248, 
        "backend": "jax", 
        "clsd1s": 0.8126078848103445, 
        "clsd2s": 0.7263434146653428, 
        "clsu1s": 0.9597046579958576, 
        "clsu2s": 0.991716183548924, 
        "covqual": 3.0, 
        "dodgycov": 0.0, 
        "excludedXsec": -999007.0, 
        "expectedUpperLimit": -1.0, 
        "expectedUpperLimitMinus1Sig": -1.0, 
        "expectedUpperLimitMinus2Sig": -1.0, 
        "expectedUpperLimitPlus1Sig": -1.0, 
        "expectedUpperLimitPlus2Sig": -1.0, 
        "fID": -1.0, 
        "failedcov": 0.0, 
        "failedfit": 0.0, 
        "failedp0": 1.0, 
        "failedstatus": 0.0, 
        "fitstatus": 0.0, 
        "mLSP": 300.0, 
        "mNLSP": 1200.0, 
        "mode": -1.0, 
        "nexp": -1.0, 
        "nofit": 0.0, 
        "optimizer": "scipy", 
        "p0": 0.5, 
        "p0d1s": -1.0, 
        "p0d2s": -1.0, 
        "p0exp": -1.0, 
        "p0u1s": -1.0, 
        "p0u2s": -1.0, 
        "p1": 0.5, 
        "seed": 0.0, 
        "sigma0": -1.0, 
        "sigma1": -1.0, 
        "upperLimit": -1.0, 
        "upperLimitEstimatedError": -1.0, 
        "xsec": -999007.0
    }, 
    {
        "CLs": 0.6831965315764637, 
        "CLsexp": 0.5362923349559194, 
        "CPUtime": 0.0, 
        "DM": 700.0, 
        "LogDM": 2.845098040014257, 
        "backend": "jax", 
        "clsd1s": 0.3327027995352975, 
        "clsd2s": 0.19414299134766289, 
        "clsu1s": 0.7709206748187457, 
        "clsu2s": 0.9377828942403357, 
        "covqual": 3.0, 
        "dodgycov": 0.0, 
        "excludedXsec": -999007.0, 
        "expectedUpperLimit": -1.0, 
        "expectedUpperLimitMinus1Sig": -1.0, 
        "expectedUpperLimitMinus2Sig": -1.0, 
        "expectedUpperLimitPlus1Sig": -1.0, 
        "expectedUpperLimitPlus2Sig": -1.0, 
        "fID": -1.0, 
        "failedcov": 0.0, 
        "failedfit": 0.0, 
        "failedp0": 1.0, 
        "failedstatus": 0.0, 
        "fitstatus": 0.0, 
        "mLSP": 200.0, 
        "mNLSP": 900.0, 
        "mode": -1.0, 
        "nexp": -1.0, 
        "nofit": 0.0, 
        "optimizer": "scipy", 
        "p0": 0.5, 
        "p0d1s": -1.0, 
        "p0d2s": -1.0, 
        "p0exp": -1.0, 
        "p0u1s": -1.0, 
        "p0u2s": -1.0, 
        "p1": 0.5, 
        "seed": 0.0, 
        "sigma0": -1.0, 
        "sigma1": -1.0, 
        "upperLimit": -1.0, 
        "upperLimitEstimatedError": -1.0, 
        "xsec": -999007.0
    }, 
    {
        "CLs": 0.8562399741229156, 
        "CLsexp": 0.8321031133540054, 
        "CPUtime": 0.0, 
        "DM": 800.0, 
        "LogDM": 2.9030899869919438, 
        "backend": "jax", 
        "clsd1s": 0.7106933151637022, 
        "clsd2s": 0.5926628849947617, 
        "clsu1s": 0.93261434248579, 
        "clsu2s": 0.9855325870492867, 
        "covqual": 3.0, 
        "dodgycov": 0.0, 
        "excludedXsec": -999007.0, 
        "expectedUpperLimit": -1.0, 
        "expectedUpperLimitMinus1Sig": -1.0, 
        "expectedUpperLimitMinus2Sig": -1.0, 
        "expectedUpperLimitPlus1Sig": -1.0, 
        "expectedUpperLimitPlus2Sig": -1.0, 
        "fID": -1.0, 
        "failedcov": 0.0, 
        "failedfit": 0.0, 
        "failedp0": 1.0, 
        "failedstatus": 0.0, 
        "fitstatus": 0.0, 
        "mLSP": 300.0, 
        "mNLSP": 1100.0, 
        "mode": -1.0, 
        "nexp": -1.0, 
        "nofit": 0.0, 
        "optimizer": "scipy", 
        "p0": 0.5, 
        "p0d1s": -1.0, 
        "p0d2s": -1.0, 
        "p0exp": -1.0, 
        "p0u1s": -1.0, 
        "p0u2s": -1.0, 
        "p1": 0.5, 
        "seed": 0.0, 
        "sigma0": -1.0, 
        "sigma1": -1.0, 
        "upperLimit": -1.0, 
        "upperLimitEstimatedError": -1.0, 
        "xsec": -999007.0
    }, 
    {
        "CLs": 0.8500410026526294, 
        "CLsexp": 0.8235861601035598, 
        "CPUtime": 0.0, 
        "DM": 500.0, 
        "LogDM": 2.6989700043360187, 
        "backend": "jax", 
        "clsd1s": 0.6975951741529868, 
        "clsd2s": 0.5762645447152733, 
        "clsu1s": 0.9287985893490587, 
        "clsu2s": 0.9846215029498683, 
        "covqual": 3.0, 
        "dodgycov": 0.0, 
        "excludedXsec": -999007.0, 
        "expectedUpperLimit": -1.0, 
        "expectedUpperLimitMinus1Sig": -1.0, 
        "expectedUpperLimitMinus2Sig": -1.0, 
        "expectedUpperLimitPlus1Sig": -1.0, 
        "expectedUpperLimitPlus2Sig": -1.0, 
        "fID": -1.0, 
        "failedcov": 0.0, 
        "failedfit": 0.0, 
        "failedp0": 1.0, 
        "failedstatus": 0.0, 
        "fitstatus": 0.0, 
        "mLSP": 500.0, 
        "mNLSP": 1000.0, 
        "mode": -1.0, 
        "nexp": -1.0, 
        "nofit": 0.0, 
        "optimizer": "scipy", 
        "p0": 0.5, 
        "p0d1s": -1.0, 
        "p0d2s": -1.0, 
        "p0exp": -1.0, 
        "p0u1s": -1.0, 
        "p0u2s": -1.0, 
        "p1": 0.5, 
        "seed": 0.0, 
        "sigma0": -1.0, 
        "sigma1": -1.0, 
        "upperLimit": -1.0, 
        "upperLimitEstimatedError": -1.0, 
        "xsec": -999007.0
    }, 
    {
        "CLs": 0.5266272375363495, 
        "CLsexp": 0.10112366257740947, 
        "CPUtime": 0.0, 
        "DM": 400.0, 
        "LogDM": 2.6020599913279625, 
        "backend": "jax", 
        "clsd1s": 0.026171677499284434, 
        "clsd2s": 0.0060052797985067465, 
        "clsu1s": 0.31054036094486714, 
        "clsu2s": 0.6557068216140713, 
        "covqual": 3.0, 
        "dodgycov": 0.0, 
        "excludedXsec": -999007.0, 
        "expectedUpperLimit": -1.0, 
        "expectedUpperLimitMinus1Sig": -1.0, 
        "expectedUpperLimitMinus2Sig": -1.0, 
        "expectedUpperLimitPlus1Sig": -1.0, 
        "expectedUpperLimitPlus2Sig": -1.0, 
        "fID": -1.0, 
        "failedcov": 0.0, 
        "failedfit": 0.0, 
        "failedp0": 1.0, 
        "failedstatus": 0.0, 
        "fitstatus": 0.0, 
        "mLSP": 200.0, 
        "mNLSP": 600.0, 
        "mode": -1.0, 
        "nexp": -1.0, 
        "nofit": 0.0, 
        "optimizer": "scipy", 
        "p0": 0.5, 
        "p0d1s": -1.0, 
        "p0d2s": -1.0, 
        "p0exp": -1.0, 
        "p0u1s": -1.0, 
        "p0u2s": -1.0, 
        "p1": 0.5, 
        "seed": 0.0, 
        "sigma0": -1.0, 
        "sigma1": -1.0, 
        "upperLimit": -1.0, 
        "upperLimitEstimatedError": -1.0, 
        "xsec": -999007.0
    }, 
    {
        "CLs": 0.8572490352118844, 
        "CLsexp": 0.8334778355827114, 
        "CPUtime": 0.0, 
        "DM": 300.0, 
        "LogDM": 2.4771212547196626, 
        "backend": "jax", 
        "clsd1s": 0.7128209313939995, 
        "clsd2s": 0.5953434865018385, 
        "clsu1s": 0.9332263458494606, 
        "clsu2s": 0.9856777883954836, 
        "covqual": 3.0, 
        "dodgycov": 0.0, 
        "excludedXsec": -999007.0, 
        "expectedUpperLimit": -1.0, 
        "expectedUpperLimitMinus1Sig": -1.0, 
        "expectedUpperLimitMinus2Sig": -1.0, 
        "expectedUpperLimitPlus1Sig": -1.0, 
        "expectedUpperLimitPlus2Sig": -1.0, 
        "fID": -1.0, 
        "failedcov": 0.0, 
        "failedfit": 0.0, 
        "failedp0": 1.0, 
        "failedstatus": 0.0, 
        "fitstatus": 0.0, 
        "mLSP": 500.0, 
        "mNLSP": 800.0, 
        "mode": -1.0, 
        "nexp": -1.0, 
        "nofit": 0.0, 
        "optimizer": "scipy", 
        "p0": 0.5, 
        "p0d1s": -1.0, 
        "p0d2s": -1.0, 
        "p0exp": -1.0, 
        "p0u1s": -1.0, 
        "p0u2s": -1.0, 
        "p1": 0.5, 
        "seed": 0.0, 
        "sigma0": -1.0, 
        "sigma1": -1.0, 
        "upperLimit": -1.0, 
        "upperLimitEstimatedError": -1.0, 
        "xsec": -999007.0
    }, 
    {
        "CLs": 0.6753066775128276, 
        "CLsexp": 0.5191913047816636, 
        "CPUtime": 0.0, 
        "DM": 900.0, 
        "LogDM": 2.9542425094393248, 
        "backend": "jax", 
        "clsd1s": 0.31531851209906553, 
        "clsd2s": 0.1797557742810826, 
        "clsu1s": 0.7593294452891514, 
        "clsu2s": 0.9335955431303041, 
        "covqual": 3.0, 
        "dodgycov": 0.0, 
        "excludedXsec": -999007.0, 
        "expectedUpperLimit": -1.0, 
        "expectedUpperLimitMinus1Sig": -1.0, 
        "expectedUpperLimitMinus2Sig": -1.0, 
        "expectedUpperLimitPlus1Sig": -1.0, 
        "expectedUpperLimitPlus2Sig": -1.0, 
        "fID": -1.0, 
        "failedcov": 0.0, 
        "failedfit": 0.0, 
        "failedp0": 1.0, 
        "failedstatus": 0.0, 
        "fitstatus": 0.0, 
        "mLSP": 0.0, 
        "mNLSP": 900.0, 
        "mode": -1.0, 
        "nexp": -1.0, 
        "nofit": 0.0, 
        "optimizer": "scipy", 
        "p0": 0.5, 
        "p0d1s": -1.0, 
        "p0d2s": -1.0, 
        "p0exp": -1.0, 
        "p0u1s": -1.0, 
        "p0u2s": -1.0, 
        "p1": 0.5, 
        "seed": 0.0, 
        "sigma0": -1.0, 
        "sigma1": -1.0, 
        "upperLimit": -1.0, 
        "upperLimitEstimatedError": -1.0, 
        "xsec": -999007.0
    }, 
    {
        "CLs": 0.8596831070004475, 
        "CLsexp": 0.8367806790002686, 
        "CPUtime": 0.0, 
        "DM": 900.0, 
        "LogDM": 2.9542425094393248, 
        "backend": "jax", 
        "clsd1s": 0.717947984708546, 
        "clsd2s": 0.6018224993420859, 
        "clsu1s": 0.9346923184903503, 
        "clsu2s": 0.9860245589879755, 
        "covqual": 3.0, 
        "dodgycov": 0.0, 
        "excludedXsec": -999007.0, 
        "expectedUpperLimit": -1.0, 
        "expectedUpperLimitMinus1Sig": -1.0, 
        "expectedUpperLimitMinus2Sig": -1.0, 
        "expectedUpperLimitPlus1Sig": -1.0, 
        "expectedUpperLimitPlus2Sig": -1.0, 
        "fID": -1.0, 
        "failedcov": 0.0, 
        "failedfit": 0.0, 
        "failedp0": 1.0, 
        "failedstatus": 0.0, 
        "fitstatus": 0.0, 
        "mLSP": 200.0, 
        "mNLSP": 1100.0, 
        "mode": -1.0, 
        "nexp": -1.0, 
        "nofit": 0.0, 
        "optimizer": "scipy", 
        "p0": 0.5, 
        "p0d1s": -1.0, 
        "p0d2s": -1.0, 
        "p0exp": -1.0, 
        "p0u1s": -1.0, 
        "p0u2s": -1.0, 
        "p1": 0.5, 
        "seed": 0.0, 
        "sigma0": -1.0, 
        "sigma1": -1.0, 
        "upperLimit": -1.0, 
        "upperLimitEstimatedError": -1.0, 
        "xsec": -999007.0
    }, 
    {
        "CLs": 0.6872183889686648, 
        "CLsexp": 0.5448584961459797, 
        "CPUtime": 0.0, 
        "DM": 450.0, 
        "LogDM": 2.6532125137753435, 
        "backend": "jax", 
        "clsd1s": 0.3415823753562873, 
        "clsd2s": 0.20163614735761945, 
        "clsu1s": 0.7766144906064326, 
        "clsu2s": 0.9397998878214485, 
        "covqual": 3.0, 
        "dodgycov": 0.0, 
        "excludedXsec": -999007.0, 
        "expectedUpperLimit": -1.0, 
        "expectedUpperLimitMinus1Sig": -1.0, 
        "expectedUpperLimitMinus2Sig": -1.0, 
        "expectedUpperLimitPlus1Sig": -1.0, 
        "expectedUpperLimitPlus2Sig": -1.0, 
        "fID": -1.0, 
        "failedcov": 0.0, 
        "failedfit": 0.0, 
        "failedp0": 1.0, 
        "failedstatus": 0.0, 
        "fitstatus": 0.0, 
        "mLSP": 250.0, 
        "mNLSP": 700.0, 
        "mode": -1.0, 
        "nexp": -1.0, 
        "nofit": 0.0, 
        "optimizer": "scipy", 
        "p0": 0.5, 
        "p0d1s": -1.0, 
        "p0d2s": -1.0, 
        "p0exp": -1.0, 
        "p0u1s": -1.0, 
        "p0u2s": -1.0, 
        "p1": 0.5, 
        "seed": 0.0, 
        "sigma0": -1.0, 
        "sigma1": -1.0, 
        "upperLimit": -1.0, 
        "upperLimitEstimatedError": -1.0, 
        "xsec": -999007.0
    }, 
    {
        "CLs": 0.7851755979993005, 
        "CLsexp": 0.726399543556764, 
        "CPUtime": 0.0, 
        "DM": 200.0, 
        "LogDM": 2.3010299956639813, 
        "backend": "jax", 
        "clsd1s": 0.5579455643340541, 
        "clsd2s": 0.4126899269077476, 
        "clsu1s": 0.8821355061405319, 
        "clsu2s": 0.9726650814610038, 
        "covqual": 3.0, 
        "dodgycov": 0.0, 
        "excludedXsec": -999007.0, 
        "expectedUpperLimit": -1.0, 
        "expectedUpperLimitMinus1Sig": -1.0, 
        "expectedUpperLimitMinus2Sig": -1.0, 
        "expectedUpperLimitPlus1Sig": -1.0, 
        "expectedUpperLimitPlus2Sig": -1.0, 
        "fID": -1.0, 
        "failedcov": 0.0, 
        "failedfit": 0.0, 
        "failedp0": 1.0, 
        "failedstatus": 0.0, 
        "fitstatus": 0.0, 
        "mLSP": 300.0, 
        "mNLSP": 500.0, 
        "mode": -1.0, 
        "nexp": -1.0, 
        "nofit": 0.0, 
        "optimizer": "scipy", 
        "p0": 0.5, 
        "p0d1s": -1.0, 
        "p0d2s": -1.0, 
        "p0exp": -1.0, 
        "p0u1s": -1.0, 
        "p0u2s": -1.0, 
        "p1": 0.5, 
        "seed": 0.0, 
        "sigma0": -1.0, 
        "sigma1": -1.0, 
        "upperLimit": -1.0, 
        "upperLimitEstimatedError": -1.0, 
        "xsec": -999007.0
    }, 
    {
        "CLs": 0.7650303299410413, 
        "CLsexp": 0.692862281581611, 
        "CPUtime": 0.0, 
        "DM": 300.0, 
        "LogDM": 2.4771212547196626, 
        "backend": "jax", 
        "clsd1s": 0.5137673036452585, 
        "clsd2s": 0.36530681495475664, 
        "clsu1s": 0.8645911621911387, 
        "clsu2s": 0.9677729514911328, 
        "covqual": 3.0, 
        "dodgycov": 0.0, 
        "excludedXsec": -999007.0, 
        "expectedUpperLimit": -1.0, 
        "expectedUpperLimitMinus1Sig": -1.0, 
        "expectedUpperLimitMinus2Sig": -1.0, 
        "expectedUpperLimitPlus1Sig": -1.0, 
        "expectedUpperLimitPlus2Sig": -1.0, 
        "fID": -1.0, 
        "failedcov": 0.0, 
        "failedfit": 0.0, 
        "failedp0": 1.0, 
        "failedstatus": 0.0, 
        "fitstatus": 0.0, 
        "mLSP": 400.0, 
        "mNLSP": 700.0, 
        "mode": -1.0, 
        "nexp": -1.0, 
        "nofit": 0.0, 
        "optimizer": "scipy", 
        "p0": 0.5, 
        "p0d1s": -1.0, 
        "p0d2s": -1.0, 
        "p0exp": -1.0, 
        "p0u1s": -1.0, 
        "p0u2s": -1.0, 
        "p1": 0.5, 
        "seed": 0.0, 
        "sigma0": -1.0, 
        "sigma1": -1.0, 
        "upperLimit": -1.0, 
        "upperLimitEstimatedError": -1.0, 
        "xsec": -999007.0
    }, 
    {
        "CLs": 0.1403670452324929, 
        "CLsexp": 0.06157962152612263, 
        "CPUtime": 0.0, 
        "DM": 200.0, 
        "LogDM": 2.3010299956639813, 
        "backend": "jax", 
        "clsd1s": 0.012964199965028246, 
        "clsd2s": 0.0023987454796160434, 
        "clsu1s": 0.22860860370623992, 
        "clsu2s": 0.564839689195286, 
        "covqual": 3.0, 
        "dodgycov": 0.0, 
        "excludedXsec": -999007.0, 
        "expectedUpperLimit": -1.0, 
        "expectedUpperLimitMinus1Sig": -1.0, 
        "expectedUpperLimitMinus2Sig": -1.0, 
        "expectedUpperLimitPlus1Sig": -1.0, 
        "expectedUpperLimitPlus2Sig": -1.0, 
        "fID": -1.0, 
        "failedcov": 0.0, 
        "failedfit": 0.0, 
        "failedp0": 1.0, 
        "failedstatus": 0.0, 
        "fitstatus": 0.0, 
        "mLSP": 100.0, 
        "mNLSP": 300.0, 
        "mode": -1.0, 
        "nexp": -1.0, 
        "nofit": 0.0, 
        "optimizer": "scipy", 
        "p0": 0.5, 
        "p0d1s": -1.0, 
        "p0d2s": -1.0, 
        "p0exp": -1.0, 
        "p0u1s": -1.0, 
        "p0u2s": -1.0, 
        "p1": 0.5, 
        "seed": 0.0, 
        "sigma0": -1.0, 
        "sigma1": -1.0, 
        "upperLimit": -1.0, 
        "upperLimitEstimatedError": -1.0, 
        "xsec": -999007.0
    }, 
    {
        "CLs": 0.5995267165566898, 
        "CLsexp": 0.33201761925910356, 
        "CPUtime": 0.0, 
        "DM": 800.0, 
        "LogDM": 2.9030899869919438, 
        "backend": "jax", 
        "clsd1s": 0.15389257819863206, 
        "clsd2s": 0.06543777425217234, 
        "clsu1s": 0.6084822861577203, 
        "clsu2s": 0.868233835010944, 
        "covqual": 3.0, 
        "dodgycov": 0.0, 
        "excludedXsec": -999007.0, 
        "expectedUpperLimit": -1.0, 
        "expectedUpperLimitMinus1Sig": -1.0, 
        "expectedUpperLimitMinus2Sig": -1.0, 
        "expectedUpperLimitPlus1Sig": -1.0, 
        "expectedUpperLimitPlus2Sig": -1.0, 
        "fID": -1.0, 
        "failedcov": 0.0, 
        "failedfit": 0.0, 
        "failedp0": 1.0, 
        "failedstatus": 0.0, 
        "fitstatus": 0.0, 
        "mLSP": 0.0, 
        "mNLSP": 800.0, 
        "mode": -1.0, 
        "nexp": -1.0, 
        "nofit": 0.0, 
        "optimizer": "scipy", 
        "p0": 0.5, 
        "p0d1s": -1.0, 
        "p0d2s": -1.0, 
        "p0exp": -1.0, 
        "p0u1s": -1.0, 
        "p0u2s": -1.0, 
        "p1": 0.5, 
        "seed": 0.0, 
        "sigma0": -1.0, 
        "sigma1": -1.0, 
        "upperLimit": -1.0, 
        "upperLimitEstimatedError": -1.0, 
        "xsec": -999007.0
    }, 
    {
        "CLs": 0.19085450081945474, 
        "CLsexp": 0.00881738104533639, 
        "CPUtime": 0.0, 
        "DM": 450.0, 
        "LogDM": 2.6532125137753435, 
        "backend": "jax", 
        "clsd1s": 0.00093183536365296, 
        "clsd2s": 8.47230807444669e-05, 
        "clsu1s": 0.06265891436356448, 
        "clsu2s": 0.27417774582981824, 
        "covqual": 3.0, 
        "dodgycov": 0.0, 
        "excludedXsec": -999007.0, 
        "expectedUpperLimit": -1.0, 
        "expectedUpperLimitMinus1Sig": -1.0, 
        "expectedUpperLimitMinus2Sig": -1.0, 
        "expectedUpperLimitPlus1Sig": -1.0, 
        "expectedUpperLimitPlus2Sig": -1.0, 
        "fID": -1.0, 
        "failedcov": 0.0, 
        "failedfit": 0.0, 
        "failedp0": 1.0, 
        "failedstatus": 0.0, 
        "fitstatus": 0.0, 
        "mLSP": 50.0, 
        "mNLSP": 500.0, 
        "mode": -1.0, 
        "nexp": -1.0, 
        "nofit": 0.0, 
        "optimizer": "scipy", 
        "p0": 0.5, 
        "p0d1s": -1.0, 
        "p0d2s": -1.0, 
        "p0exp": -1.0, 
        "p0u1s": -1.0, 
        "p0u2s": -1.0, 
        "p1": 0.5, 
        "seed": 0.0, 
        "sigma0": -1.0, 
        "sigma1": -1.0, 
        "upperLimit": -1.0, 
        "upperLimitEstimatedError": -1.0, 
        "xsec": -999007.0
    }, 
    {
        "CLs": 0.19660243948012304, 
        "CLsexp": 0.008068082941631137, 
        "CPUtime": 0.0, 
        "DM": 500.0, 
        "LogDM": 2.6989700043360187, 
        "backend": "jax", 
        "clsd1s": 0.0008290011826768433, 
        "clsd2s": 7.323324691862161e-05, 
        "clsu1s": 0.058896888755844555, 
        "clsu2s": 0.26411075604859136, 
        "covqual": 3.0, 
        "dodgycov": 0.0, 
        "excludedXsec": -999007.0, 
        "expectedUpperLimit": -1.0, 
        "expectedUpperLimitMinus1Sig": -1.0, 
        "expectedUpperLimitMinus2Sig": -1.0, 
        "expectedUpperLimitPlus1Sig": -1.0, 
        "expectedUpperLimitPlus2Sig": -1.0, 
        "fID": -1.0, 
        "failedcov": 0.0, 
        "failedfit": 0.0, 
        "failedp0": 1.0, 
        "failedstatus": 0.0, 
        "fitstatus": 0.0, 
        "mLSP": 0.0, 
        "mNLSP": 500.0, 
        "mode": -1.0, 
        "nexp": -1.0, 
        "nofit": 0.0, 
        "optimizer": "scipy", 
        "p0": 0.5, 
        "p0d1s": -1.0, 
        "p0d2s": -1.0, 
        "p0exp": -1.0, 
        "p0u1s": -1.0, 
        "p0u2s": -1.0, 
        "p1": 0.5, 
        "seed": 0.0, 
        "sigma0": -1.0, 
        "sigma1": -1.0, 
        "upperLimit": -1.0, 
        "upperLimitEstimatedError": -1.0, 
        "xsec": -999007.0
    }, 
    {
        "CLs": 0.7696511785851723, 
        "CLsexp": 0.7007101037144239, 
        "CPUtime": 0.0, 
        "DM": 700.0, 
        "LogDM": 2.845098040014257, 
        "backend": "jax", 
        "clsd1s": 0.5239272277429969, 
        "clsd2s": 0.3760145190668106, 
        "clsu1s": 0.868767820968478, 
        "clsu2s": 0.9689576034672002, 
        "covqual": 3.0, 
        "dodgycov": 0.0, 
        "excludedXsec": -999007.0, 
        "expectedUpperLimit": -1.0, 
        "expectedUpperLimitMinus1Sig": -1.0, 
        "expectedUpperLimitMinus2Sig": -1.0, 
        "expectedUpperLimitPlus1Sig": -1.0, 
        "expectedUpperLimitPlus2Sig": -1.0, 
        "fID": -1.0, 
        "failedcov": 0.0, 
        "failedfit": 0.0, 
        "failedp0": 1.0, 
        "failedstatus": 0.0, 
        "fitstatus": 0.0, 
        "mLSP": 300.0, 
        "mNLSP": 1000.0, 
        "mode": -1.0, 
        "nexp": -1.0, 
        "nofit": 0.0, 
        "optimizer": "scipy", 
        "p0": 0.5, 
        "p0d1s": -1.0, 
        "p0d2s": -1.0, 
        "p0exp": -1.0, 
        "p0u1s": -1.0, 
        "p0u2s": -1.0, 
        "p1": 0.5, 
        "seed": 0.0, 
        "sigma0": -1.0, 
        "sigma1": -1.0, 
        "upperLimit": -1.0, 
        "upperLimitEstimatedError": -1.0, 
        "xsec": -999007.0
    }, 
    {
        "CLs": 0.8912744426758902, 
        "CLsexp": 0.8780111353830801, 
        "CPUtime": 0.0, 
        "DM": 1200.0, 
        "LogDM": 3.0791812460476247, 
        "backend": "jax", 
        "clsd1s": 0.7838030208400247, 
        "clsd2s": 0.6874710777973612, 
        "clsu1s": 0.9524818371498609, 
        "clsu2s": 0.9901161096726834, 
        "covqual": 3.0, 
        "dodgycov": 0.0, 
        "excludedXsec": -999007.0, 
        "expectedUpperLimit": -1.0, 
        "expectedUpperLimitMinus1Sig": -1.0, 
        "expectedUpperLimitMinus2Sig": -1.0, 
        "expectedUpperLimitPlus1Sig": -1.0, 
        "expectedUpperLimitPlus2Sig": -1.0, 
        "fID": -1.0, 
        "failedcov": 0.0, 
        "failedfit": 0.0, 
        "failedp0": 1.0, 
        "failedstatus": 0.0, 
        "fitstatus": 0.0, 
        "mLSP": 0.0, 
        "mNLSP": 1200.0, 
        "mode": -1.0, 
        "nexp": -1.0, 
        "nofit": 0.0, 
        "optimizer": "scipy", 
        "p0": 0.5, 
        "p0d1s": -1.0, 
        "p0d2s": -1.0, 
        "p0exp": -1.0, 
        "p0u1s": -1.0, 
        "p0u2s": -1.0, 
        "p1": 0.5, 
        "seed": 0.0, 
        "sigma0": -1.0, 
        "sigma1": -1.0, 
        "upperLimit": -1.0, 
        "upperLimitEstimatedError": -1.0, 
        "xsec": -999007.0
    }, 
    {
        "CLs": 0.9005794545791785, 
        "CLsexp": 0.8896038046223489, 
        "CPUtime": 0.0, 
        "DM": 800.0, 
        "LogDM": 2.9030899869919438, 
        "backend": "jax", 
        "clsd1s": 0.8029493453623227, 
        "clsd2s": 0.7132138730467412, 
        "clsu1s": 0.95731806061626, 
        "clsu2s": 0.9911913732806975, 
        "covqual": 3.0, 
        "dodgycov": 0.0, 
        "excludedXsec": -999007.0, 
        "expectedUpperLimit": -1.0, 
        "expectedUpperLimitMinus1Sig": -1.0, 
        "expectedUpperLimitMinus2Sig": -1.0, 
        "expectedUpperLimitPlus1Sig": -1.0, 
        "expectedUpperLimitPlus2Sig": -1.0, 
        "fID": -1.0, 
        "failedcov": 0.0, 
        "failedfit": 0.0, 
        "failedp0": 1.0, 
        "failedstatus": 0.0, 
        "fitstatus": 0.0, 
        "mLSP": 400.0, 
        "mNLSP": 1200.0, 
        "mode": -1.0, 
        "nexp": -1.0, 
        "nofit": 0.0, 
        "optimizer": "scipy", 
        "p0": 0.5, 
        "p0d1s": -1.0, 
        "p0d2s": -1.0, 
        "p0exp": -1.0, 
        "p0u1s": -1.0, 
        "p0u2s": -1.0, 
        "p1": 0.5, 
        "seed": 0.0, 
        "sigma0": -1.0, 
        "sigma1": -1.0, 
        "upperLimit": -1.0, 
        "upperLimitEstimatedError": -1.0, 
        "xsec": -999007.0
    }, 
    {
        "CLs": 0.8654784269307273, 
        "CLsexp": 0.8445696982346161, 
        "CPUtime": 0.0, 
        "DM": 700.0, 
        "LogDM": 2.845098040014257, 
        "backend": "jax", 
        "clsd1s": 0.7301251537893608, 
        "clsd2s": 0.6173204401696746, 
        "clsu1s": 0.938125050412869, 
        "clsu2s": 0.9868308251989748, 
        "covqual": 3.0, 
        "dodgycov": 0.0, 
        "excludedXsec": -999007.0, 
        "expectedUpperLimit": -1.0, 
        "expectedUpperLimitMinus1Sig": -1.0, 
        "expectedUpperLimitMinus2Sig": -1.0, 
        "expectedUpperLimitPlus1Sig": -1.0, 
        "expectedUpperLimitPlus2Sig": -1.0, 
        "fID": -1.0, 
        "failedcov": 0.0, 
        "failedfit": 0.0, 
        "failedp0": 1.0, 
        "failedstatus": 0.0, 
        "fitstatus": 0.0, 
        "mLSP": 400.0, 
        "mNLSP": 1100.0, 
        "mode": -1.0, 
        "nexp": -1.0, 
        "nofit": 0.0, 
        "optimizer": "scipy", 
        "p0": 0.5, 
        "p0d1s": -1.0, 
        "p0d2s": -1.0, 
        "p0exp": -1.0, 
        "p0u1s": -1.0, 
        "p0u2s": -1.0, 
        "p1": 0.5, 
        "seed": 0.0, 
        "sigma0": -1.0, 
        "sigma1": -1.0, 
        "upperLimit": -1.0, 
        "upperLimitEstimatedError": -1.0, 
        "xsec": -999007.0
    }, 
    {
        "CLs": 0.506105204398094, 
        "CLsexp": 0.07397937190488679, 
        "CPUtime": 0.0, 
        "DM": 300.0, 
        "LogDM": 2.4771212547196626, 
        "backend": "jax", 
        "clsd1s": 0.01677884103814533, 
        "clsd2s": 0.003354620101469286, 
        "clsu1s": 0.25639522084452215, 
        "clsu2s": 0.5980431149244557, 
        "covqual": 3.0, 
        "dodgycov": 0.0, 
        "excludedXsec": -999007.0, 
        "expectedUpperLimit": -1.0, 
        "expectedUpperLimitMinus1Sig": -1.0, 
        "expectedUpperLimitMinus2Sig": -1.0, 
        "expectedUpperLimitPlus1Sig": -1.0, 
        "expectedUpperLimitPlus2Sig": -1.0, 
        "fID": -1.0, 
        "failedcov": 0.0, 
        "failedfit": 0.0, 
        "failedp0": 1.0, 
        "failedstatus": 0.0, 
        "fitstatus": 0.0, 
        "mLSP": 200.0, 
        "mNLSP": 500.0, 
        "mode": -1.0, 
        "nexp": -1.0, 
        "nofit": 0.0, 
        "optimizer": "scipy", 
        "p0": 0.5, 
        "p0d1s": -1.0, 
        "p0d2s": -1.0, 
        "p0exp": -1.0, 
        "p0u1s": -1.0, 
        "p0u2s": -1.0, 
        "p1": 0.5, 
        "seed": 0.0, 
        "sigma0": -1.0, 
        "sigma1": -1.0, 
        "upperLimit": -1.0, 
        "upperLimitEstimatedError": -1.0, 
        "xsec": -999007.0
    }, 
    {
        "CLs": 0.674120252684482, 
        "CLsexp": 0.5165851403843755, 
        "CPUtime": 0.0, 
        "DM": 500.0, 
        "LogDM": 2.6989700043360187, 
        "backend": "jax", 
        "clsd1s": 0.31270903412092366, 
        "clsd2s": 0.17762877882513117, 
        "clsu1s": 0.7575360845951681, 
        "clsu2s": 0.932937867211713, 
        "covqual": 3.0, 
        "dodgycov": 0.0, 
        "excludedXsec": -999007.0, 
        "expectedUpperLimit": -1.0, 
        "expectedUpperLimitMinus1Sig": -1.0, 
        "expectedUpperLimitMinus2Sig": -1.0, 
        "expectedUpperLimitPlus1Sig": -1.0, 
        "expectedUpperLimitPlus2Sig": -1.0, 
        "fID": -1.0, 
        "failedcov": 0.0, 
        "failedfit": 0.0, 
        "failedp0": 1.0, 
        "failedstatus": 0.0, 
        "fitstatus": 0.0, 
        "mLSP": 300.0, 
        "mNLSP": 800.0, 
        "mode": -1.0, 
        "nexp": -1.0, 
        "nofit": 0.0, 
        "optimizer": "scipy", 
        "p0": 0.5, 
        "p0d1s": -1.0, 
        "p0d2s": -1.0, 
        "p0exp": -1.0, 
        "p0u1s": -1.0, 
        "p0u2s": -1.0, 
        "p1": 0.5, 
        "seed": 0.0, 
        "sigma0": -1.0, 
        "sigma1": -1.0, 
        "upperLimit": -1.0, 
        "upperLimitEstimatedError": -1.0, 
        "xsec": -999007.0
    }, 
    {
        "CLs": 0.6741722302579266, 
        "CLsexp": 0.516699509237547, 
        "CPUtime": 0.0, 
        "DM": 800.0, 
        "LogDM": 2.9030899869919438, 
        "backend": "jax", 
        "clsd1s": 0.3128233280454916, 
        "clsd2s": 0.17772176085799216, 
        "clsu1s": 0.7576149360061928, 
        "clsu2s": 0.9329668399164747, 
        "covqual": 3.0, 
        "dodgycov": 0.0, 
        "excludedXsec": -999007.0, 
        "expectedUpperLimit": -1.0, 
        "expectedUpperLimitMinus1Sig": -1.0, 
        "expectedUpperLimitMinus2Sig": -1.0, 
        "expectedUpperLimitPlus1Sig": -1.0, 
        "expectedUpperLimitPlus2Sig": -1.0, 
        "fID": -1.0, 
        "failedcov": 0.0, 
        "failedfit": 0.0, 
        "failedp0": 1.0, 
        "failedstatus": 0.0, 
        "fitstatus": 0.0, 
        "mLSP": 100.0, 
        "mNLSP": 900.0, 
        "mode": -1.0, 
        "nexp": -1.0, 
        "nofit": 0.0, 
        "optimizer": "scipy", 
        "p0": 0.5, 
        "p0d1s": -1.0, 
        "p0d2s": -1.0, 
        "p0exp": -1.0, 
        "p0u1s": -1.0, 
        "p0u2s": -1.0, 
        "p1": 0.5, 
        "seed": 0.0, 
        "sigma0": -1.0, 
        "sigma1": -1.0, 
        "upperLimit": -1.0, 
        "upperLimitEstimatedError": -1.0, 
        "xsec": -999007.0
    }, 
    {
        "CLs": 0.8841570075302805, 
        "CLsexp": 0.8689791615255029, 
        "CPUtime": 0.0, 
        "DM": 600.0, 
        "LogDM": 2.7781512503836434, 
        "backend": "jax", 
        "clsd1s": 0.7690797470150627, 
        "clsd2s": 0.6679325708309855, 
        "clsu1s": 0.9486643042159033, 
        "clsu2s": 0.9892561748478641, 
        "covqual": 3.0, 
        "dodgycov": 0.0, 
        "excludedXsec": -999007.0, 
        "expectedUpperLimit": -1.0, 
        "expectedUpperLimitMinus1Sig": -1.0, 
        "expectedUpperLimitMinus2Sig": -1.0, 
        "expectedUpperLimitPlus1Sig": -1.0, 
        "expectedUpperLimitPlus2Sig": -1.0, 
        "fID": -1.0, 
        "failedcov": 0.0, 
        "failedfit": 0.0, 
        "failedp0": 1.0, 
        "failedstatus": 0.0, 
        "fitstatus": 0.0, 
        "mLSP": 500.0, 
        "mNLSP": 1100.0, 
        "mode": -1.0, 
        "nexp": -1.0, 
        "nofit": 0.0, 
        "optimizer": "scipy", 
        "p0": 0.5, 
        "p0d1s": -1.0, 
        "p0d2s": -1.0, 
        "p0exp": -1.0, 
        "p0u1s": -1.0, 
        "p0u2s": -1.0, 
        "p1": 0.5, 
        "seed": 0.0, 
        "sigma0": -1.0, 
        "sigma1": -1.0, 
        "upperLimit": -1.0, 
        "upperLimitEstimatedError": -1.0, 
        "xsec": -999007.0
    }, 
    {
        "CLs": 0.8978215423639961, 
        "CLsexp": 0.8861929093759944, 
        "CPUtime": 0.0, 
        "DM": 1100.0, 
        "LogDM": 3.041392685158225, 
        "backend": "jax", 
        "clsd1s": 0.7972867298377365, 
        "clsd2s": 0.705560956907591, 
        "clsu1s": 0.9559024707526801, 
        "clsu2s": 0.990878271852505, 
        "covqual": 3.0, 
        "dodgycov": 0.0, 
        "excludedXsec": -999007.0, 
        "expectedUpperLimit": -1.0, 
        "expectedUpperLimitMinus1Sig": -1.0, 
        "expectedUpperLimitMinus2Sig": -1.0, 
        "expectedUpperLimitPlus1Sig": -1.0, 
        "expectedUpperLimitPlus2Sig": -1.0, 
        "fID": -1.0, 
        "failedcov": 0.0, 
        "failedfit": 0.0, 
        "failedp0": 1.0, 
        "failedstatus": 0.0, 
        "fitstatus": 0.0, 
        "mLSP": 100.0, 
        "mNLSP": 1200.0, 
        "mode": -1.0, 
        "nexp": -1.0, 
        "nofit": 0.0, 
        "optimizer": "scipy", 
        "p0": 0.5, 
        "p0d1s": -1.0, 
        "p0d2s": -1.0, 
        "p0exp": -1.0, 
        "p0u1s": -1.0, 
        "p0u2s": -1.0, 
        "p1": 0.5, 
        "seed": 0.0, 
        "sigma0": -1.0, 
        "sigma1": -1.0, 
        "upperLimit": -1.0, 
        "upperLimitEstimatedError": -1.0, 
        "xsec": -999007.0
    }, 
    {
        "CLs": 0.7058733228826202, 
        "CLsexp": 0.58331521027564, 
        "CPUtime": 0.0, 
        "DM": 600.0, 
        "LogDM": 2.7781512503836434, 
        "backend": "jax", 
        "clsd1s": 0.3828749659415548, 
        "clsd2s": 0.23773969227733724, 
        "clsu1s": 0.8012979819761166, 
        "clsu2s": 0.9482455977963251, 
        "covqual": 3.0, 
        "dodgycov": 0.0, 
        "excludedXsec": -999007.0, 
        "expectedUpperLimit": -1.0, 
        "expectedUpperLimitMinus1Sig": -1.0, 
        "expectedUpperLimitMinus2Sig": -1.0, 
        "expectedUpperLimitPlus1Sig": -1.0, 
        "expectedUpperLimitPlus2Sig": -1.0, 
        "fID": -1.0, 
        "failedcov": 0.0, 
        "failedfit": 0.0, 
        "failedp0": 1.0, 
        "failedstatus": 0.0, 
        "fitstatus": 0.0, 
        "mLSP": 300.0, 
        "mNLSP": 900.0, 
        "mode": -1.0, 
        "nexp": -1.0, 
        "nofit": 0.0, 
        "optimizer": "scipy", 
        "p0": 0.5, 
        "p0d1s": -1.0, 
        "p0d2s": -1.0, 
        "p0exp": -1.0, 
        "p0u1s": -1.0, 
        "p0u2s": -1.0, 
        "p1": 0.5, 
        "seed": 0.0, 
        "sigma0": -1.0, 
        "sigma1": -1.0, 
        "upperLimit": -1.0, 
        "upperLimitEstimatedError": -1.0, 
        "xsec": -999007.0
    }, 
    {
        "CLs": 0.5353417082779929, 
        "CLsexp": 0.13203420443990732, 
        "CPUtime": 0.0, 
        "DM": 600.0, 
        "LogDM": 2.7781512503836434, 
        "backend": "jax", 
        "clsd1s": 0.03846745303468449, 
        "clsd2s": 0.009992815734944415, 
        "clsu1s": 0.3641589774893246, 
        "clsu2s": 0.7053483210212189, 
        "covqual": 3.0, 
        "dodgycov": 0.0, 
        "excludedXsec": -999007.0, 
        "expectedUpperLimit": -1.0, 
        "expectedUpperLimitMinus1Sig": -1.0, 
        "expectedUpperLimitMinus2Sig": -1.0, 
        "expectedUpperLimitPlus1Sig": -1.0, 
        "expectedUpperLimitPlus2Sig": -1.0, 
        "fID": -1.0, 
        "failedcov": 0.0, 
        "failedfit": 0.0, 
        "failedp0": 1.0, 
        "failedstatus": 0.0, 
        "fitstatus": 0.0, 
        "mLSP": 100.0, 
        "mNLSP": 700.0, 
        "mode": -1.0, 
        "nexp": -1.0, 
        "nofit": 0.0, 
        "optimizer": "scipy", 
        "p0": 0.5, 
        "p0d1s": -1.0, 
        "p0d2s": -1.0, 
        "p0exp": -1.0, 
        "p0u1s": -1.0, 
        "p0u2s": -1.0, 
        "p1": 0.5, 
        "seed": 0.0, 
        "sigma0": -1.0, 
        "sigma1": -1.0, 
        "upperLimit": -1.0, 
        "upperLimitEstimatedError": -1.0, 
        "xsec": -999007.0
    }, 
    {
        "CLs": 0.7002679604771604, 
        "CLsexp": 0.5719752202876697, 
        "CPUtime": 0.0, 
        "DM": 250.0, 
        "LogDM": 2.3979400086720375, 
        "backend": "jax", 
        "clsd1s": 0.3704539813007267, 
        "clsd2s": 0.2266640261103444, 
        "clsu1s": 0.7941645854353669, 
        "clsu2s": 0.9458541114920561, 
        "covqual": 3.0, 
        "dodgycov": 0.0, 
        "excludedXsec": -999007.0, 
        "expectedUpperLimit": -1.0, 
        "expectedUpperLimitMinus1Sig": -1.0, 
        "expectedUpperLimitMinus2Sig": -1.0, 
        "expectedUpperLimitPlus1Sig": -1.0, 
        "expectedUpperLimitPlus2Sig": -1.0, 
        "fID": -1.0, 
        "failedcov": 0.0, 
        "failedfit": 0.0, 
        "failedp0": 1.0, 
        "failedstatus": 0.0, 
        "fitstatus": 0.0, 
        "mLSP": 250.0, 
        "mNLSP": 500.0, 
        "mode": -1.0, 
        "nexp": -1.0, 
        "nofit": 0.0, 
        "optimizer": "scipy", 
        "p0": 0.5, 
        "p0d1s": -1.0, 
        "p0d2s": -1.0, 
        "p0exp": -1.0, 
        "p0u1s": -1.0, 
        "p0u2s": -1.0, 
        "p1": 0.5, 
        "seed": 0.0, 
        "sigma0": -1.0, 
        "sigma1": -1.0, 
        "upperLimit": -1.0, 
        "upperLimitEstimatedError": -1.0, 
        "xsec": -999007.0
    }, 
    {
        "CLs": 0.8158159857428128, 
        "CLsexp": 0.7742333841503671, 
        "CPUtime": 0.0, 
        "DM": 600.0, 
        "LogDM": 2.7781512503836434, 
        "backend": "jax", 
        "clsd1s": 0.6244653010049123, 
        "clsd2s": 0.48802031804693363, 
        "clsu1s": 0.9058427480525403, 
        "clsu2s": 0.9789290365509606, 
        "covqual": 3.0, 
        "dodgycov": 0.0, 
        "excludedXsec": -999007.0, 
        "expectedUpperLimit": -1.0, 
        "expectedUpperLimitMinus1Sig": -1.0, 
        "expectedUpperLimitMinus2Sig": -1.0, 
        "expectedUpperLimitPlus1Sig": -1.0, 
        "expectedUpperLimitPlus2Sig": -1.0, 
        "fID": -1.0, 
        "failedcov": 0.0, 
        "failedfit": 0.0, 
        "failedp0": 1.0, 
        "failedstatus": 0.0, 
        "fitstatus": 0.0, 
        "mLSP": 400.0, 
        "mNLSP": 1000.0, 
        "mode": -1.0, 
        "nexp": -1.0, 
        "nofit": 0.0, 
        "optimizer": "scipy", 
        "p0": 0.5, 
        "p0d1s": -1.0, 
        "p0d2s": -1.0, 
        "p0exp": -1.0, 
        "p0u1s": -1.0, 
        "p0u2s": -1.0, 
        "p1": 0.5, 
        "seed": 0.0, 
        "sigma0": -1.0, 
        "sigma1": -1.0, 
        "upperLimit": -1.0, 
        "upperLimitEstimatedError": -1.0, 
        "xsec": -999007.0
    }, 
    {
        "CLs": 0.768434301366951, 
        "CLsexp": 0.6986525741743674, 
        "CPUtime": 0.0, 
        "DM": 800.0, 
        "LogDM": 2.9030899869919438, 
        "backend": "jax", 
        "clsd1s": 0.5212530819184441, 
        "clsd2s": 0.3731851807346504, 
        "clsu1s": 0.8676770729503992, 
        "clsu2s": 0.9686494401555271, 
        "covqual": 3.0, 
        "dodgycov": 0.0, 
        "excludedXsec": -999007.0, 
        "expectedUpperLimit": -1.0, 
        "expectedUpperLimitMinus1Sig": -1.0, 
        "expectedUpperLimitMinus2Sig": -1.0, 
        "expectedUpperLimitPlus1Sig": -1.0, 
        "expectedUpperLimitPlus2Sig": -1.0, 
        "fID": -1.0, 
        "failedcov": 0.0, 
        "failedfit": 0.0, 
        "failedp0": 1.0, 
        "failedstatus": 0.0, 
        "fitstatus": 0.0, 
        "mLSP": 200.0, 
        "mNLSP": 1000.0, 
        "mode": -1.0, 
        "nexp": -1.0, 
        "nofit": 0.0, 
        "optimizer": "scipy", 
        "p0": 0.5, 
        "p0d1s": -1.0, 
        "p0d2s": -1.0, 
        "p0exp": -1.0, 
        "p0u1s": -1.0, 
        "p0u2s": -1.0, 
        "p1": 0.5, 
        "seed": 0.0, 
        "sigma0": -1.0, 
        "sigma1": -1.0, 
        "upperLimit": -1.0, 
        "upperLimitEstimatedError": -1.0, 
        "xsec": -999007.0
    }, 
    {
        "CLs": 0.7325991503373316, 
        "CLsexp": 0.6349970518809073, 
        "CPUtime": 0.0, 
        "DM": 500.0, 
        "LogDM": 2.6989700043360187, 
        "backend": "jax", 
        "clsd1s": 0.44212779490469645, 
        "clsd2s": 0.2930667898468503, 
        "clsu1s": 0.8323708427232143, 
        "clsu2s": 0.9582065223733951, 
        "covqual": 3.0, 
        "dodgycov": 0.0, 
        "excludedXsec": -999007.0, 
        "expectedUpperLimit": -1.0, 
        "expectedUpperLimitMinus1Sig": -1.0, 
        "expectedUpperLimitMinus2Sig": -1.0, 
        "expectedUpperLimitPlus1Sig": -1.0, 
        "expectedUpperLimitPlus2Sig": -1.0, 
        "fID": -1.0, 
        "failedcov": 0.0, 
        "failedfit": 0.0, 
        "failedp0": 1.0, 
        "failedstatus": 0.0, 
        "fitstatus": 0.0, 
        "mLSP": 400.0, 
        "mNLSP": 900.0, 
        "mode": -1.0, 
        "nexp": -1.0, 
        "nofit": 0.0, 
        "optimizer": "scipy", 
        "p0": 0.5, 
        "p0d1s": -1.0, 
        "p0d2s": -1.0, 
        "p0exp": -1.0, 
        "p0u1s": -1.0, 
        "p0u2s": -1.0, 
        "p1": 0.5, 
        "seed": 0.0, 
        "sigma0": -1.0, 
        "sigma1": -1.0, 
        "upperLimit": -1.0, 
        "upperLimitEstimatedError": -1.0, 
        "xsec": -999007.0
    }, 
    {
        "CLs": 0.7824737213274591, 
        "CLsexp": 0.7220018094620358, 
        "CPUtime": 0.0, 
        "DM": 1000.0, 
        "LogDM": 3.0, 
        "backend": "jax", 
        "clsd1s": 0.5520387035034019, 
        "clsd2s": 0.40623120973743043, 
        "clsu1s": 0.8798796078202572, 
        "clsu2s": 0.9720483598206655, 
        "covqual": 3.0, 
        "dodgycov": 0.0, 
        "excludedXsec": -999007.0, 
        "expectedUpperLimit": -1.0, 
        "expectedUpperLimitMinus1Sig": -1.0, 
        "expectedUpperLimitMinus2Sig": -1.0, 
        "expectedUpperLimitPlus1Sig": -1.0, 
        "expectedUpperLimitPlus2Sig": -1.0, 
        "fID": -1.0, 
        "failedcov": 0.0, 
        "failedfit": 0.0, 
        "failedp0": 1.0, 
        "failedstatus": 0.0, 
        "fitstatus": 0.0, 
        "mLSP": 0.0, 
        "mNLSP": 1000.0, 
        "mode": -1.0, 
        "nexp": -1.0, 
        "nofit": 0.0, 
        "optimizer": "scipy", 
        "p0": 0.5, 
        "p0d1s": -1.0, 
        "p0d2s": -1.0, 
        "p0exp": -1.0, 
        "p0u1s": -1.0, 
        "p0u2s": -1.0, 
        "p1": 0.5, 
        "seed": 0.0, 
        "sigma0": -1.0, 
        "sigma1": -1.0, 
        "upperLimit": -1.0, 
        "upperLimitEstimatedError": -1.0, 
        "xsec": -999007.0
    }, 
    {
        "CLs": 0.7984734647005954, 
        "CLsexp": 0.7476102285065025, 
        "CPUtime": 0.0, 
        "DM": 400.0, 
        "LogDM": 2.6020599913279625, 
        "backend": "jax", 
        "clsd1s": 0.5869247876482617, 
        "clsd2s": 0.44492346138096456, 
        "clsu1s": 0.8928326628162387, 
        "clsu2s": 0.9755404169040233, 
        "covqual": 3.0, 
        "dodgycov": 0.0, 
        "excludedXsec": -999007.0, 
        "expectedUpperLimit": -1.0, 
        "expectedUpperLimitMinus1Sig": -1.0, 
        "expectedUpperLimitMinus2Sig": -1.0, 
        "expectedUpperLimitPlus1Sig": -1.0, 
        "expectedUpperLimitPlus2Sig": -1.0, 
        "fID": -1.0, 
        "failedcov": 0.0, 
        "failedfit": 0.0, 
        "failedp0": 1.0, 
        "failedstatus": 0.0, 
        "fitstatus": 0.0, 
        "mLSP": 500.0, 
        "mNLSP": 900.0, 
        "mode": -1.0, 
        "nexp": -1.0, 
        "nofit": 0.0, 
        "optimizer": "scipy", 
        "p0": 0.5, 
        "p0d1s": -1.0, 
        "p0d2s": -1.0, 
        "p0exp": -1.0, 
        "p0u1s": -1.0, 
        "p0u2s": -1.0, 
        "p1": 0.5, 
        "seed": 0.0, 
        "sigma0": -1.0, 
        "sigma1": -1.0, 
        "upperLimit": -1.0, 
        "upperLimitEstimatedError": -1.0, 
        "xsec": -999007.0
    }, 
    {
        "CLs": 0.6283665433276758, 
        "CLsexp": 0.4085721771495916, 
        "CPUtime": 0.0, 
        "DM": 600.0, 
        "LogDM": 2.7781512503836434, 
        "backend": "jax", 
        "clsd1s": 0.2136351956861778, 
        "clsd2s": 0.10345683256281277, 
        "clsu1s": 0.6761872462271677, 
        "clsu2s": 0.9002002508471052, 
        "covqual": 3.0, 
        "dodgycov": 0.0, 
        "excludedXsec": -999007.0, 
        "expectedUpperLimit": -1.0, 
        "expectedUpperLimitMinus1Sig": -1.0, 
        "expectedUpperLimitMinus2Sig": -1.0, 
        "expectedUpperLimitPlus1Sig": -1.0, 
        "expectedUpperLimitPlus2Sig": -1.0, 
        "fID": -1.0, 
        "failedcov": 0.0, 
        "failedfit": 0.0, 
        "failedp0": 1.0, 
        "failedstatus": 0.0, 
        "fitstatus": 0.0, 
        "mLSP": 200.0, 
        "mNLSP": 800.0, 
        "mode": -1.0, 
        "nexp": -1.0, 
        "nofit": 0.0, 
        "optimizer": "scipy", 
        "p0": 0.5, 
        "p0d1s": -1.0, 
        "p0d2s": -1.0, 
        "p0exp": -1.0, 
        "p0u1s": -1.0, 
        "p0u2s": -1.0, 
        "p1": 0.5, 
        "seed": 0.0, 
        "sigma0": -1.0, 
        "sigma1": -1.0, 
        "upperLimit": -1.0, 
        "upperLimitEstimatedError": -1.0, 
        "xsec": -999007.0
    }, 
    {
        "CLs": 0.5286249859051554, 
        "CLsexp": 0.10829978403741669, 
        "CPUtime": 0.0, 
        "DM": 700.0, 
        "LogDM": 2.845098040014257, 
        "backend": "jax", 
        "clsd1s": 0.02887958518842406, 
        "clsd2s": 0.006837195182916826, 
        "clsu1s": 0.3236443496997145, 
        "clsu2s": 0.6684605111166628, 
        "covqual": 3.0, 
        "dodgycov": 0.0, 
        "excludedXsec": -999007.0, 
        "expectedUpperLimit": -1.0, 
        "expectedUpperLimitMinus1Sig": -1.0, 
        "expectedUpperLimitMinus2Sig": -1.0, 
        "expectedUpperLimitPlus1Sig": -1.0, 
        "expectedUpperLimitPlus2Sig": -1.0, 
        "fID": -1.0, 
        "failedcov": 0.0, 
        "failedfit": 0.0, 
        "failedp0": 1.0, 
        "failedstatus": 0.0, 
        "fitstatus": 0.0, 
        "mLSP": 0.0, 
        "mNLSP": 700.0, 
        "mode": -1.0, 
        "nexp": -1.0, 
        "nofit": 0.0, 
        "optimizer": "scipy", 
        "p0": 0.5, 
        "p0d1s": -1.0, 
        "p0d2s": -1.0, 
        "p0exp": -1.0, 
        "p0u1s": -1.0, 
        "p0u2s": -1.0, 
        "p1": 0.5, 
        "seed": 0.0, 
        "sigma0": -1.0, 
        "sigma1": -1.0, 
        "upperLimit": -1.0, 
        "upperLimitEstimatedError": -1.0, 
        "xsec": -999007.0
    }, 
    {
        "CLs": 0.8302136985348841, 
        "CLsexp": 0.7954908455922306, 
        "CPUtime": 0.0, 
        "DM": 1100.0, 
        "LogDM": 3.041392685158225, 
        "backend": "jax", 
        "clsd1s": 0.6553919168574917, 
        "clsd2s": 0.5246507117597738, 
        "clsu1s": 0.9159105614813968, 
        "clsu2s": 0.9814703864398397, 
        "covqual": 3.0, 
        "dodgycov": 0.0, 
        "excludedXsec": -999007.0, 
        "expectedUpperLimit": -1.0, 
        "expectedUpperLimitMinus1Sig": -1.0, 
        "expectedUpperLimitMinus2Sig": -1.0, 
        "expectedUpperLimitPlus1Sig": -1.0, 
        "expectedUpperLimitPlus2Sig": -1.0, 
        "fID": -1.0, 
        "failedcov": 0.0, 
        "failedfit": 0.0, 
        "failedp0": 1.0, 
        "failedstatus": 0.0, 
        "fitstatus": 0.0, 
        "mLSP": 0.0, 
        "mNLSP": 1100.0, 
        "mode": -1.0, 
        "nexp": -1.0, 
        "nofit": 0.0, 
        "optimizer": "scipy", 
        "p0": 0.5, 
        "p0d1s": -1.0, 
        "p0d2s": -1.0, 
        "p0exp": -1.0, 
        "p0u1s": -1.0, 
        "p0u2s": -1.0, 
        "p1": 0.5, 
        "seed": 0.0, 
        "sigma0": -1.0, 
        "sigma1": -1.0, 
        "upperLimit": -1.0, 
        "upperLimitEstimatedError": -1.0, 
        "xsec": -999007.0
    }, 
    {
        "CLs": 0.7139472009354143, 
        "CLsexp": 0.5993361992458279, 
        "CPUtime": 0.0, 
        "DM": 400.0, 
        "LogDM": 2.6020599913279625, 
        "backend": "jax", 
        "clsd1s": 0.40077618138457105, 
        "clsd2s": 0.25402348985106377, 
        "clsu1s": 0.8111774298127455, 
        "clsu2s": 0.9514925310332396, 
        "covqual": 3.0, 
        "dodgycov": 0.0, 
        "excludedXsec": -999007.0, 
        "expectedUpperLimit": -1.0, 
        "expectedUpperLimitMinus1Sig": -1.0, 
        "expectedUpperLimitMinus2Sig": -1.0, 
        "expectedUpperLimitPlus1Sig": -1.0, 
        "expectedUpperLimitPlus2Sig": -1.0, 
        "fID": -1.0, 
        "failedcov": 0.0, 
        "failedfit": 0.0, 
        "failedp0": 1.0, 
        "failedstatus": 0.0, 
        "fitstatus": 0.0, 
        "mLSP": 400.0, 
        "mNLSP": 800.0, 
        "mode": -1.0, 
        "nexp": -1.0, 
        "nofit": 0.0, 
        "optimizer": "scipy", 
        "p0": 0.5, 
        "p0d1s": -1.0, 
        "p0d2s": -1.0, 
        "p0exp": -1.0, 
        "p0u1s": -1.0, 
        "p0u2s": -1.0, 
        "p1": 0.5, 
        "seed": 0.0, 
        "sigma0": -1.0, 
        "sigma1": -1.0, 
        "upperLimit": -1.0, 
        "upperLimitEstimatedError": -1.0, 
        "xsec": -999007.0
    }, 
    {
        "CLs": 0.6084383706059404, 
        "CLsexp": 0.35644816581159133, 
        "CPUtime": 0.0, 
        "DM": 700.0, 
        "LogDM": 2.845098040014257, 
        "backend": "jax", 
        "clsd1s": 0.1720282201176882, 
        "clsd2s": 0.07639943101005954, 
        "clsu1s": 0.6311617899833639, 
        "clsu2s": 0.8794564696631786, 
        "covqual": 3.0, 
        "dodgycov": 0.0, 
        "excludedXsec": -999007.0, 
        "expectedUpperLimit": -1.0, 
        "expectedUpperLimitMinus1Sig": -1.0, 
        "expectedUpperLimitMinus2Sig": -1.0, 
        "expectedUpperLimitPlus1Sig": -1.0, 
        "expectedUpperLimitPlus2Sig": -1.0, 
        "fID": -1.0, 
        "failedcov": 0.0, 
        "failedfit": 0.0, 
        "failedp0": 1.0, 
        "failedstatus": 0.0, 
        "fitstatus": 0.0, 
        "mLSP": 100.0, 
        "mNLSP": 800.0, 
        "mode": -1.0, 
        "nexp": -1.0, 
        "nofit": 0.0, 
        "optimizer": "scipy", 
        "p0": 0.5, 
        "p0d1s": -1.0, 
        "p0d2s": -1.0, 
        "p0exp": -1.0, 
        "p0u1s": -1.0, 
        "p0u2s": -1.0, 
        "p1": 0.5, 
        "seed": 0.0, 
        "sigma0": -1.0, 
        "sigma1": -1.0, 
        "upperLimit": -1.0, 
        "upperLimitEstimatedError": -1.0, 
        "xsec": -999007.0
    }, 
    {
        "CLs": 0.5131562546225897, 
        "CLsexp": 0.0512758229255754, 
        "CPUtime": 0.0, 
        "DM": 500.0, 
        "LogDM": 2.6989700043360187, 
        "backend": "jax", 
        "clsd1s": 0.010041730793727562, 
        "clsd2s": 0.0017236065958126762, 
        "clsu1s": 0.20356526005021788, 
        "clsu2s": 0.5323836299754241, 
        "covqual": 3.0, 
        "dodgycov": 0.0, 
        "excludedXsec": -999007.0, 
        "expectedUpperLimit": -1.0, 
        "expectedUpperLimitMinus1Sig": -1.0, 
        "expectedUpperLimitMinus2Sig": -1.0, 
        "expectedUpperLimitPlus1Sig": -1.0, 
        "expectedUpperLimitPlus2Sig": -1.0, 
        "fID": -1.0, 
        "failedcov": 0.0, 
        "failedfit": 0.0, 
        "failedp0": 1.0, 
        "failedstatus": 0.0, 
        "fitstatus": 0.0, 
        "mLSP": 100.0, 
        "mNLSP": 600.0, 
        "mode": -1.0, 
        "nexp": -1.0, 
        "nofit": 0.0, 
        "optimizer": "scipy", 
        "p0": 0.5, 
        "p0d1s": -1.0, 
        "p0d2s": -1.0, 
        "p0exp": -1.0, 
        "p0u1s": -1.0, 
        "p0u2s": -1.0, 
        "p1": 0.5, 
        "seed": 0.0, 
        "sigma0": -1.0, 
        "sigma1": -1.0, 
        "upperLimit": -1.0, 
        "upperLimitEstimatedError": -1.0, 
        "xsec": -999007.0
    }, 
    {
        "CLs": 0.6229187763896465, 
        "CLsexp": 0.3946542664906242, 
        "CPUtime": 0.0, 
        "DM": 400.0, 
        "LogDM": 2.6020599913279625, 
        "backend": "jax", 
        "clsd1s": 0.20213560352193502, 
        "clsd2s": 0.09572159606875087, 
        "clsu1s": 0.6645806470535947, 
        "clsu2s": 0.8950416009844469, 
        "covqual": 3.0, 
        "dodgycov": 0.0, 
        "excludedXsec": -999007.0, 
        "expectedUpperLimit": -1.0, 
        "expectedUpperLimitMinus1Sig": -1.0, 
        "expectedUpperLimitMinus2Sig": -1.0, 
        "expectedUpperLimitPlus1Sig": -1.0, 
        "expectedUpperLimitPlus2Sig": -1.0, 
        "fID": -1.0, 
        "failedcov": 0.0, 
        "failedfit": 0.0, 
        "failedp0": 1.0, 
        "failedstatus": 0.0, 
        "fitstatus": 0.0, 
        "mLSP": 300.0, 
        "mNLSP": 700.0, 
        "mode": -1.0, 
        "nexp": -1.0, 
        "nofit": 0.0, 
        "optimizer": "scipy", 
        "p0": 0.5, 
        "p0d1s": -1.0, 
        "p0d2s": -1.0, 
        "p0exp": -1.0, 
        "p0u1s": -1.0, 
        "p0u2s": -1.0, 
        "p1": 0.5, 
        "seed": 0.0, 
        "sigma0": -1.0, 
        "sigma1": -1.0, 
        "upperLimit": -1.0, 
        "upperLimitEstimatedError": -1.0, 
        "xsec": -999007.0
    }, 
    {
        "CLs": 0.7082145593616224, 
        "CLsexp": 0.5879985284383449, 
        "CPUtime": 0.0, 
        "DM": 500.0, 
        "LogDM": 2.6989700043360187, 
        "backend": "jax", 
        "clsd1s": 0.3880650073793471, 
        "clsd2s": 0.2424218946123442, 
        "clsu1s": 0.8042097398579725, 
        "clsu2s": 0.9492103958141441, 
        "covqual": 3.0, 
        "dodgycov": 0.0, 
        "excludedXsec": -999007.0, 
        "expectedUpperLimit": -1.0, 
        "expectedUpperLimitMinus1Sig": -1.0, 
        "expectedUpperLimitMinus2Sig": -1.0, 
        "expectedUpperLimitPlus1Sig": -1.0, 
        "expectedUpperLimitPlus2Sig": -1.0, 
        "fID": -1.0, 
        "failedcov": 0.0, 
        "failedfit": 0.0, 
        "failedp0": 1.0, 
        "failedstatus": 0.0, 
        "fitstatus": 0.0, 
        "mLSP": 250.0, 
        "mNLSP": 750.0, 
        "mode": -1.0, 
        "nexp": -1.0, 
        "nofit": 0.0, 
        "optimizer": "scipy", 
        "p0": 0.5, 
        "p0d1s": -1.0, 
        "p0d2s": -1.0, 
        "p0exp": -1.0, 
        "p0u1s": -1.0, 
        "p0u2s": -1.0, 
        "p1": 0.5, 
        "seed": 0.0, 
        "sigma0": -1.0, 
        "sigma1": -1.0, 
        "upperLimit": -1.0, 
        "upperLimitEstimatedError": -1.0, 
        "xsec": -999007.0
    }, 
    {
        "CLs": 0.026825094232486094, 
        "CLsexp": 0.0021719818266580167, 
        "CPUtime": 0.0, 
        "DM": 275.0, 
        "LogDM": 2.439332693830263, 
        "backend": "jax", 
        "clsd1s": 0.0001509530722204734, 
        "clsd2s": 8.945254416326038e-06, 
        "clsu1s": 0.023094956965867736, 
        "clsu2s": 0.14662697038815883, 
        "covqual": 3.0, 
        "dodgycov": 0.0, 
        "excludedXsec": -999007.0, 
        "expectedUpperLimit": -1.0, 
        "expectedUpperLimitMinus1Sig": -1.0, 
        "expectedUpperLimitMinus2Sig": -1.0, 
        "expectedUpperLimitPlus1Sig": -1.0, 
        "expectedUpperLimitPlus2Sig": -1.0, 
        "fID": -1.0, 
        "failedcov": 0.0, 
        "failedfit": 0.0, 
        "failedp0": 1.0, 
        "failedstatus": 0.0, 
        "fitstatus": 0.0, 
        "mLSP": 25.0, 
        "mNLSP": 300.0, 
        "mode": -1.0, 
        "nexp": -1.0, 
        "nofit": 0.0, 
        "optimizer": "scipy", 
        "p0": 0.5, 
        "p0d1s": -1.0, 
        "p0d2s": -1.0, 
        "p0exp": -1.0, 
        "p0u1s": -1.0, 
        "p0u2s": -1.0, 
        "p1": 0.5, 
        "seed": 0.0, 
        "sigma0": -1.0, 
        "sigma1": -1.0, 
        "upperLimit": -1.0, 
        "upperLimitEstimatedError": -1.0, 
        "xsec": -999007.0
    }
]