Combining 500_50
Observed CL_s:  1.0129927503653009e-07
Expected CL_s (-2 sigma), (-1  sigma), median, (1 sigma), (2 sigma):  [array(1.309924e-12), array(2.38492383e-10), array(3.60973227e-08), array(3.87166994e-06), array(0.00023017)]
