Combining 600_300
Observed CL_s: 0.025485678724738392
Expected CL_s (-2 sigma), (-1  sigma), median, (1 sigma), (2 sigma): [array(0.00052074), array(0.00394381), array(0.02595425), array(0.13066097), array(0.41980304)]
