[
    {
        "CLs": 0.9735301299457103, 
        "CLsexp": 0.976720427315825, 
        "CPUtime": 0.0, 
        "DM": 300.0, 
        "LogDM": 2.4771212547196626, 
        "backend": "jax", 
        "clsd1s": 0.956144643502797, 
        "clsd2s": 0.9327392643371627, 
        "clsu1s": 0.9914851841430478, 
        "clsu2s": 0.9983400913093544, 
        "covqual": 3.0, 
        "dodgycov": 0.0, 
        "excludedXsec": -999007.0, 
        "expectedUpperLimit": -1.0, 
        "expectedUpperLimitMinus1Sig": -1.0, 
        "expectedUpperLimitMinus2Sig": -1.0, 
        "expectedUpperLimitPlus1Sig": -1.0, 
        "expectedUpperLimitPlus2Sig": -1.0, 
        "fID": -1.0, 
        "failedcov": 0.0, 
        "failedfit": 0.0, 
        "failedp0": 1.0, 
        "failedstatus": 0.0, 
        "fitstatus": 0.0, 
        "mLSP": 0.0, 
        "mNLSP": 300.0, 
        "mode": -1.0, 
        "nexp": -1.0, 
        "nofit": 0.0, 
        "optimizer": "scipy", 
        "p0": 0.5, 
        "p0d1s": -1.0, 
        "p0d2s": -1.0, 
        "p0exp": -1.0, 
        "p0u1s": -1.0, 
        "p0u2s": -1.0, 
        "p1": 0.5, 
        "seed": 0.0, 
        "sigma0": -1.0, 
        "sigma1": -1.0, 
        "upperLimit": -1.0, 
        "upperLimitEstimatedError": -1.0, 
        "xsec": -999007.0
    }, 
    {
        "CLs": 0.10261946921859819, 
        "CLsexp": 0.08767240216092899, 
        "CPUtime": 0.0, 
        "DM": 400.0, 
        "LogDM": 2.6020599913279625, 
        "backend": "jax", 
        "clsd1s": 0.021344916567318517, 
        "clsd2s": 0.004594763874626404, 
        "clsu1s": 0.28470251462461843, 
        "clsu2s": 0.6292464062074951, 
        "covqual": 3.0, 
        "dodgycov": 0.0, 
        "excludedXsec": -999007.0, 
        "expectedUpperLimit": -1.0, 
        "expectedUpperLimitMinus1Sig": -1.0, 
        "expectedUpperLimitMinus2Sig": -1.0, 
        "expectedUpperLimitPlus1Sig": -1.0, 
        "expectedUpperLimitPlus2Sig": -1.0, 
        "fID": -1.0, 
        "failedcov": 0.0, 
        "failedfit": 0.0, 
        "failedp0": 1.0, 
        "failedstatus": 0.0, 
        "fitstatus": 0.0, 
        "mLSP": 200.0, 
        "mNLSP": 600.0, 
        "mode": -1.0, 
        "nexp": -1.0, 
        "nofit": 0.0, 
        "optimizer": "scipy", 
        "p0": 0.5, 
        "p0d1s": -1.0, 
        "p0d2s": -1.0, 
        "p0exp": -1.0, 
        "p0u1s": -1.0, 
        "p0u2s": -1.0, 
        "p1": 0.5, 
        "seed": 0.0, 
        "sigma0": -1.0, 
        "sigma1": -1.0, 
        "upperLimit": -1.0, 
        "upperLimitEstimatedError": -1.0, 
        "xsec": -999007.0
    }, 
    {
        "CLs": 0.0017377982101307201, 
        "CLsexp": 0.0014423439315990928, 
        "CPUtime": 0.0, 
        "DM": 600.0, 
        "LogDM": 2.7781512503836434, 
        "backend": "jax", 
        "clsd1s": 8.945896370259704e-05, 
        "clsd2s": 4.7211174005756055e-06, 
        "clsu1s": 0.01712296943806501, 
        "clsu2s": 0.12054557618933132, 
        "covqual": 3.0, 
        "dodgycov": 0.0, 
        "excludedXsec": -999007.0, 
        "expectedUpperLimit": -1.0, 
        "expectedUpperLimitMinus1Sig": -1.0, 
        "expectedUpperLimitMinus2Sig": -1.0, 
        "expectedUpperLimitPlus1Sig": -1.0, 
        "expectedUpperLimitPlus2Sig": -1.0, 
        "fID": -1.0, 
        "failedcov": 0.0, 
        "failedfit": 0.0, 
        "failedp0": 1.0, 
        "failedstatus": 0.0, 
        "fitstatus": 0.0, 
        "mLSP": 0.0, 
        "mNLSP": 600.0, 
        "mode": -1.0, 
        "nexp": -1.0, 
        "nofit": 0.0, 
        "optimizer": "scipy", 
        "p0": 0.5, 
        "p0d1s": -1.0, 
        "p0d2s": -1.0, 
        "p0exp": -1.0, 
        "p0u1s": -1.0, 
        "p0u2s": -1.0, 
        "p1": 0.5, 
        "seed": 0.0, 
        "sigma0": -1.0, 
        "sigma1": -1.0, 
        "upperLimit": -1.0, 
        "upperLimitEstimatedError": -1.0, 
        "xsec": -999007.0
    }, 
    {
        "CLs": 0.4170141409967895, 
        "CLsexp": 0.3963431323719072, 
        "CPUtime": 0.0, 
        "DM": 300.0, 
        "LogDM": 2.4771212547196626, 
        "backend": "jax", 
        "clsd1s": 0.2035158250021316, 
        "clsd2s": 0.09663985095196176, 
        "clsu1s": 0.6660044797352958, 
        "clsu2s": 0.8956813372244717, 
        "covqual": 3.0, 
        "dodgycov": 0.0, 
        "excludedXsec": -999007.0, 
        "expectedUpperLimit": -1.0, 
        "expectedUpperLimitMinus1Sig": -1.0, 
        "expectedUpperLimitMinus2Sig": -1.0, 
        "expectedUpperLimitPlus1Sig": -1.0, 
        "expectedUpperLimitPlus2Sig": -1.0, 
        "fID": -1.0, 
        "failedcov": 0.0, 
        "failedfit": 0.0, 
        "failedp0": 1.0, 
        "failedstatus": 0.0, 
        "fitstatus": 0.0, 
        "mLSP": 300.0, 
        "mNLSP": 600.0, 
        "mode": -1.0, 
        "nexp": -1.0, 
        "nofit": 0.0, 
        "optimizer": "scipy", 
        "p0": 0.5, 
        "p0d1s": -1.0, 
        "p0d2s": -1.0, 
        "p0exp": -1.0, 
        "p0u1s": -1.0, 
        "p0u2s": -1.0, 
        "p1": 0.5, 
        "seed": 0.0, 
        "sigma0": -1.0, 
        "sigma1": -1.0, 
        "upperLimit": -1.0, 
        "upperLimitEstimatedError": -1.0, 
        "xsec": -999007.0
    }, 
    {
        "CLs": 0.002298315308412235, 
        "CLsexp": 0.0018889734438681006, 
        "CPUtime": 0.0, 
        "DM": 500.0, 
        "LogDM": 2.6989700043360187, 
        "backend": "jax", 
        "clsd1s": 0.00012623675393508453, 
        "clsd2s": 7.187771855978325e-06, 
        "clsu1s": 0.020861928835072503, 
        "clsu2s": 0.1372355933480317, 
        "covqual": 3.0, 
        "dodgycov": 0.0, 
        "excludedXsec": -999007.0, 
        "expectedUpperLimit": -1.0, 
        "expectedUpperLimitMinus1Sig": -1.0, 
        "expectedUpperLimitMinus2Sig": -1.0, 
        "expectedUpperLimitPlus1Sig": -1.0, 
        "expectedUpperLimitPlus2Sig": -1.0, 
        "fID": -1.0, 
        "failedcov": 0.0, 
        "failedfit": 0.0, 
        "failedp0": 1.0, 
        "failedstatus": 0.0, 
        "fitstatus": 0.0, 
        "mLSP": 100.0, 
        "mNLSP": 600.0, 
        "mode": -1.0, 
        "nexp": -1.0, 
        "nofit": 0.0, 
        "optimizer": "scipy", 
        "p0": 0.5, 
        "p0d1s": -1.0, 
        "p0d2s": -1.0, 
        "p0exp": -1.0, 
        "p0u1s": -1.0, 
        "p0u2s": -1.0, 
        "p1": 0.5, 
        "seed": 0.0, 
        "sigma0": -1.0, 
        "sigma1": -1.0, 
        "upperLimit": -1.0, 
        "upperLimitEstimatedError": -1.0, 
        "xsec": -999007.0
    }, 
    {
        "CLs": 0.09612306524781992, 
        "CLsexp": 0.09734664523738307, 
        "CPUtime": 0.0, 
        "DM": 400.0, 
        "LogDM": 2.6020599913279625, 
        "backend": "jax", 
        "clsd1s": 0.024783173407867908, 
        "clsd2s": 0.00558973471862707, 
        "clsu1s": 0.30346122650143614, 
        "clsu2s": 0.6486354852581351, 
        "covqual": 3.0, 
        "dodgycov": 0.0, 
        "excludedXsec": -999007.0, 
        "expectedUpperLimit": -1.0, 
        "expectedUpperLimitMinus1Sig": -1.0, 
        "expectedUpperLimitMinus2Sig": -1.0, 
        "expectedUpperLimitPlus1Sig": -1.0, 
        "expectedUpperLimitPlus2Sig": -1.0, 
        "fID": -1.0, 
        "failedcov": 0.0, 
        "failedfit": 0.0, 
        "failedp0": 1.0, 
        "failedstatus": 0.0, 
        "fitstatus": 0.0, 
        "mLSP": 100.0, 
        "mNLSP": 500.0, 
        "mode": -1.0, 
        "nexp": -1.0, 
        "nofit": 0.0, 
        "optimizer": "scipy", 
        "p0": 0.5, 
        "p0d1s": -1.0, 
        "p0d2s": -1.0, 
        "p0exp": -1.0, 
        "p0u1s": -1.0, 
        "p0u2s": -1.0, 
        "p1": 0.5, 
        "seed": 0.0, 
        "sigma0": -1.0, 
        "sigma1": -1.0, 
        "upperLimit": -1.0, 
        "upperLimitEstimatedError": -1.0, 
        "xsec": -999007.0
    }, 
    {
        "CLs": 0.00338804836086016, 
        "CLsexp": 0.0027155053468048106, 
        "CPUtime": 0.0, 
        "DM": 500.0, 
        "LogDM": 2.6989700043360187, 
        "backend": "jax", 
        "clsd1s": 0.00020111934910174362, 
        "clsd2s": 1.2716021977507716e-05, 
        "clsu1s": 0.027153835077568717, 
        "clsu2s": 0.16278676541461812, 
        "covqual": 3.0, 
        "dodgycov": 0.0, 
        "excludedXsec": -999007.0, 
        "expectedUpperLimit": -1.0, 
        "expectedUpperLimitMinus1Sig": -1.0, 
        "expectedUpperLimitMinus2Sig": -1.0, 
        "expectedUpperLimitPlus1Sig": -1.0, 
        "expectedUpperLimitPlus2Sig": -1.0, 
        "fID": -1.0, 
        "failedcov": 0.0, 
        "failedfit": 0.0, 
        "failedp0": 1.0, 
        "failedstatus": 0.0, 
        "fitstatus": 0.0, 
        "mLSP": 0.0, 
        "mNLSP": 500.0, 
        "mode": -1.0, 
        "nexp": -1.0, 
        "nofit": 0.0, 
        "optimizer": "scipy", 
        "p0": 0.5, 
        "p0d1s": -1.0, 
        "p0d2s": -1.0, 
        "p0exp": -1.0, 
        "p0u1s": -1.0, 
        "p0u2s": -1.0, 
        "p1": 0.5, 
        "seed": 0.0, 
        "sigma0": -1.0, 
        "sigma1": -1.0, 
        "upperLimit": -1.0, 
        "upperLimitEstimatedError": -1.0, 
        "xsec": -999007.0
    }, 
    {
        "CLs": 0.6393187547294514, 
        "CLsexp": 0.6379714820687147, 
        "CPUtime": 0.0, 
        "DM": 300.0, 
        "LogDM": 2.4771212547196626, 
        "backend": "jax", 
        "clsd1s": 0.445671976500072, 
        "clsd2s": 0.29650465859130504, 
        "clsu1s": 0.8340907669118721, 
        "clsu2s": 0.9587365436756227, 
        "covqual": 3.0, 
        "dodgycov": 0.0, 
        "excludedXsec": -999007.0, 
        "expectedUpperLimit": -1.0, 
        "expectedUpperLimitMinus1Sig": -1.0, 
        "expectedUpperLimitMinus2Sig": -1.0, 
        "expectedUpperLimitPlus1Sig": -1.0, 
        "expectedUpperLimitPlus2Sig": -1.0, 
        "fID": -1.0, 
        "failedcov": 0.0, 
        "failedfit": 0.0, 
        "failedp0": 1.0, 
        "failedstatus": 0.0, 
        "fitstatus": 0.0, 
        "mLSP": 200.0, 
        "mNLSP": 500.0, 
        "mode": -1.0, 
        "nexp": -1.0, 
        "nofit": 0.0, 
        "optimizer": "scipy", 
        "p0": 0.5, 
        "p0d1s": -1.0, 
        "p0d2s": -1.0, 
        "p0exp": -1.0, 
        "p0u1s": -1.0, 
        "p0u2s": -1.0, 
        "p1": 0.5, 
        "seed": 0.0, 
        "sigma0": -1.0, 
        "sigma1": -1.0, 
        "upperLimit": -1.0, 
        "upperLimitEstimatedError": -1.0, 
        "xsec": -999007.0
    }, 
    {
        "CLs": 0.38423636402755335, 
        "CLsexp": 0.39370086698656803, 
        "CPUtime": 0.0, 
        "DM": 700.0, 
        "LogDM": 2.845098040014257, 
        "backend": "jax", 
        "clsd1s": 0.2013582908373468, 
        "clsd2s": 0.09520568219649111, 
        "clsu1s": 0.6637749509255073, 
        "clsu2s": 0.8946787355456878, 
        "covqual": 3.0, 
        "dodgycov": 0.0, 
        "excludedXsec": -999007.0, 
        "expectedUpperLimit": -1.0, 
        "expectedUpperLimitMinus1Sig": -1.0, 
        "expectedUpperLimitMinus2Sig": -1.0, 
        "expectedUpperLimitPlus1Sig": -1.0, 
        "expectedUpperLimitPlus2Sig": -1.0, 
        "fID": -1.0, 
        "failedcov": 0.0, 
        "failedfit": 0.0, 
        "failedp0": 1.0, 
        "failedstatus": 0.0, 
        "fitstatus": 0.0, 
        "mLSP": 400.0, 
        "mNLSP": 1100.0, 
        "mode": -1.0, 
        "nexp": -1.0, 
        "nofit": 0.0, 
        "optimizer": "scipy", 
        "p0": 0.5, 
        "p0d1s": -1.0, 
        "p0d2s": -1.0, 
        "p0exp": -1.0, 
        "p0u1s": -1.0, 
        "p0u2s": -1.0, 
        "p1": 0.5, 
        "seed": 0.0, 
        "sigma0": -1.0, 
        "sigma1": -1.0, 
        "upperLimit": -1.0, 
        "upperLimitEstimatedError": -1.0, 
        "xsec": -999007.0
    }, 
    {
        "CLs": 0.7997190589166229, 
        "CLsexp": 0.7685678055724965, 
        "CPUtime": 0.0, 
        "DM": 300.0, 
        "LogDM": 2.4771212547196626, 
        "backend": "jax", 
        "clsd1s": 0.6163662915757582, 
        "clsd2s": 0.47859530330227157, 
        "clsu1s": 0.9031120373230248, 
        "clsu2s": 0.9782276022830522, 
        "covqual": 3.0, 
        "dodgycov": 0.0, 
        "excludedXsec": -999007.0, 
        "expectedUpperLimit": -1.0, 
        "expectedUpperLimitMinus1Sig": -1.0, 
        "expectedUpperLimitMinus2Sig": -1.0, 
        "expectedUpperLimitPlus1Sig": -1.0, 
        "expectedUpperLimitPlus2Sig": -1.0, 
        "fID": -1.0, 
        "failedcov": 0.0, 
        "failedfit": 0.0, 
        "failedp0": 1.0, 
        "failedstatus": 0.0, 
        "fitstatus": 0.0, 
        "mLSP": 500.0, 
        "mNLSP": 800.0, 
        "mode": -1.0, 
        "nexp": -1.0, 
        "nofit": 0.0, 
        "optimizer": "scipy", 
        "p0": 0.5, 
        "p0d1s": -1.0, 
        "p0d2s": -1.0, 
        "p0exp": -1.0, 
        "p0u1s": -1.0, 
        "p0u2s": -1.0, 
        "p1": 0.5, 
        "seed": 0.0, 
        "sigma0": -1.0, 
        "sigma1": -1.0, 
        "upperLimit": -1.0, 
        "upperLimitEstimatedError": -1.0, 
        "xsec": -999007.0
    }, 
    {
        "CLs": 0.3448260246949086, 
        "CLsexp": 0.3567851589230523, 
        "CPUtime": 0.0, 
        "DM": 800.0, 
        "LogDM": 2.9030899869919438, 
        "backend": "jax", 
        "clsd1s": 0.172284457891251, 
        "clsd2s": 0.07655803927225592, 
        "clsu1s": 0.6314671526863032, 
        "clsu2s": 0.8796039346245198, 
        "covqual": 3.0, 
        "dodgycov": 0.0, 
        "excludedXsec": -999007.0, 
        "expectedUpperLimit": -1.0, 
        "expectedUpperLimitMinus1Sig": -1.0, 
        "expectedUpperLimitMinus2Sig": -1.0, 
        "expectedUpperLimitPlus1Sig": -1.0, 
        "expectedUpperLimitPlus2Sig": -1.0, 
        "fID": -1.0, 
        "failedcov": 0.0, 
        "failedfit": 0.0, 
        "failedp0": 1.0, 
        "failedstatus": 0.0, 
        "fitstatus": 0.0, 
        "mLSP": 300.0, 
        "mNLSP": 1100.0, 
        "mode": -1.0, 
        "nexp": -1.0, 
        "nofit": 0.0, 
        "optimizer": "scipy", 
        "p0": 0.5, 
        "p0d1s": -1.0, 
        "p0d2s": -1.0, 
        "p0exp": -1.0, 
        "p0u1s": -1.0, 
        "p0u2s": -1.0, 
        "p1": 0.5, 
        "seed": 0.0, 
        "sigma0": -1.0, 
        "sigma1": -1.0, 
        "upperLimit": -1.0, 
        "upperLimitEstimatedError": -1.0, 
        "xsec": -999007.0
    }, 
    {
        "CLs": 0.4547610773434633, 
        "CLsexp": 0.45575184548887104, 
        "CPUtime": 0.0, 
        "DM": 600.0, 
        "LogDM": 2.7781512503836434, 
        "backend": "jax", 
        "clsd1s": 0.25475122385066523, 
        "clsd2s": 0.1326420170336223, 
        "clsu1s": 0.7135079989703147, 
        "clsu2s": 0.9159422004579563, 
        "covqual": 3.0, 
        "dodgycov": 0.0, 
        "excludedXsec": -999007.0, 
        "expectedUpperLimit": -1.0, 
        "expectedUpperLimitMinus1Sig": -1.0, 
        "expectedUpperLimitMinus2Sig": -1.0, 
        "expectedUpperLimitPlus1Sig": -1.0, 
        "expectedUpperLimitPlus2Sig": -1.0, 
        "fID": -1.0, 
        "failedcov": 0.0, 
        "failedfit": 0.0, 
        "failedp0": 1.0, 
        "failedstatus": 0.0, 
        "fitstatus": 0.0, 
        "mLSP": 500.0, 
        "mNLSP": 1100.0, 
        "mode": -1.0, 
        "nexp": -1.0, 
        "nofit": 0.0, 
        "optimizer": "scipy", 
        "p0": 0.5, 
        "p0d1s": -1.0, 
        "p0d2s": -1.0, 
        "p0exp": -1.0, 
        "p0u1s": -1.0, 
        "p0u2s": -1.0, 
        "p1": 0.5, 
        "seed": 0.0, 
        "sigma0": -1.0, 
        "sigma1": -1.0, 
        "upperLimit": -1.0, 
        "upperLimitEstimatedError": -1.0, 
        "xsec": -999007.0
    }, 
    {
        "CLs": 0.19976174122479726, 
        "CLsexp": 0.16193608598930764, 
        "CPUtime": 0.0, 
        "DM": 350.0, 
        "LogDM": 2.5440680443502757, 
        "backend": "jax", 
        "clsd1s": 0.051868276729385064, 
        "clsd2s": 0.014886566725139012, 
        "clsu1s": 0.41017408566820174, 
        "clsu2s": 0.7431228042044296, 
        "covqual": 3.0, 
        "dodgycov": 0.0, 
        "excludedXsec": -999007.0, 
        "expectedUpperLimit": -1.0, 
        "expectedUpperLimitMinus1Sig": -1.0, 
        "expectedUpperLimitMinus2Sig": -1.0, 
        "expectedUpperLimitPlus1Sig": -1.0, 
        "expectedUpperLimitPlus2Sig": -1.0, 
        "fID": -1.0, 
        "failedcov": 0.0, 
        "failedfit": 0.0, 
        "failedp0": 1.0, 
        "failedstatus": 0.0, 
        "fitstatus": 0.0, 
        "mLSP": 50.0, 
        "mNLSP": 400.0, 
        "mode": -1.0, 
        "nexp": -1.0, 
        "nofit": 0.0, 
        "optimizer": "scipy", 
        "p0": 0.5, 
        "p0d1s": -1.0, 
        "p0d2s": -1.0, 
        "p0exp": -1.0, 
        "p0u1s": -1.0, 
        "p0u2s": -1.0, 
        "p1": 0.5, 
        "seed": 0.0, 
        "sigma0": -1.0, 
        "sigma1": -1.0, 
        "upperLimit": -1.0, 
        "upperLimitEstimatedError": -1.0, 
        "xsec": -999007.0
    }, 
    {
        "CLs": 0.04275236765102408, 
        "CLsexp": 0.04354548221512291, 
        "CPUtime": 0.0, 
        "DM": 700.0, 
        "LogDM": 2.845098040014257, 
        "backend": "jax", 
        "clsd1s": 0.008007295855681221, 
        "clsd2s": 0.0012875701741716088, 
        "clsu1s": 0.18331903621528825, 
        "clsu2s": 0.5041126469323075, 
        "covqual": 3.0, 
        "dodgycov": 0.0, 
        "excludedXsec": -999007.0, 
        "expectedUpperLimit": -1.0, 
        "expectedUpperLimitMinus1Sig": -1.0, 
        "expectedUpperLimitMinus2Sig": -1.0, 
        "expectedUpperLimitPlus1Sig": -1.0, 
        "expectedUpperLimitPlus2Sig": -1.0, 
        "fID": -1.0, 
        "failedcov": 0.0, 
        "failedfit": 0.0, 
        "failedp0": 1.0, 
        "failedstatus": 0.0, 
        "fitstatus": 0.0, 
        "mLSP": 200.0, 
        "mNLSP": 900.0, 
        "mode": -1.0, 
        "nexp": -1.0, 
        "nofit": 0.0, 
        "optimizer": "scipy", 
        "p0": 0.5, 
        "p0d1s": -1.0, 
        "p0d2s": -1.0, 
        "p0exp": -1.0, 
        "p0u1s": -1.0, 
        "p0u2s": -1.0, 
        "p1": 0.5, 
        "seed": 0.0, 
        "sigma0": -1.0, 
        "sigma1": -1.0, 
        "upperLimit": -1.0, 
        "upperLimitEstimatedError": -1.0, 
        "xsec": -999007.0
    }, 
    {
        "CLs": 0.18272564345812745, 
        "CLsexp": 0.17863239217488602, 
        "CPUtime": 0.0, 
        "DM": 500.0, 
        "LogDM": 2.6989700043360187, 
        "backend": "jax", 
        "clsd1s": 0.05996716220588458, 
        "clsd2s": 0.01808542170038664, 
        "clsu1s": 0.43389528294263174, 
        "clsu2s": 0.7610881129207272, 
        "covqual": 3.0, 
        "dodgycov": 0.0, 
        "excludedXsec": -999007.0, 
        "expectedUpperLimit": -1.0, 
        "expectedUpperLimitMinus1Sig": -1.0, 
        "expectedUpperLimitMinus2Sig": -1.0, 
        "expectedUpperLimitPlus1Sig": -1.0, 
        "expectedUpperLimitPlus2Sig": -1.0, 
        "fID": -1.0, 
        "failedcov": 0.0, 
        "failedfit": 0.0, 
        "failedp0": 1.0, 
        "failedstatus": 0.0, 
        "fitstatus": 0.0, 
        "mLSP": 400.0, 
        "mNLSP": 900.0, 
        "mode": -1.0, 
        "nexp": -1.0, 
        "nofit": 0.0, 
        "optimizer": "scipy", 
        "p0": 0.5, 
        "p0d1s": -1.0, 
        "p0d2s": -1.0, 
        "p0exp": -1.0, 
        "p0u1s": -1.0, 
        "p0u2s": -1.0, 
        "p1": 0.5, 
        "seed": 0.0, 
        "sigma0": -1.0, 
        "sigma1": -1.0, 
        "upperLimit": -1.0, 
        "upperLimitEstimatedError": -1.0, 
        "xsec": -999007.0
    }, 
    {
        "CLs": 0.005858272850263033, 
        "CLsexp": 0.005760115997566787, 
        "CPUtime": 0.0, 
        "DM": 700.0, 
        "LogDM": 2.845098040014257, 
        "backend": "jax", 
        "clsd1s": 0.0005330590895531236, 
        "clsd2s": 4.230938755098452e-05, 
        "clsu1s": 0.04648263587042379, 
        "clsu2s": 0.22848682986354327, 
        "covqual": 3.0, 
        "dodgycov": 0.0, 
        "excludedXsec": -999007.0, 
        "expectedUpperLimit": -1.0, 
        "expectedUpperLimitMinus1Sig": -1.0, 
        "expectedUpperLimitMinus2Sig": -1.0, 
        "expectedUpperLimitPlus1Sig": -1.0, 
        "expectedUpperLimitPlus2Sig": -1.0, 
        "fID": -1.0, 
        "failedcov": 0.0, 
        "failedfit": 0.0, 
        "failedp0": 1.0, 
        "failedstatus": 0.0, 
        "fitstatus": 0.0, 
        "mLSP": 100.0, 
        "mNLSP": 800.0, 
        "mode": -1.0, 
        "nexp": -1.0, 
        "nofit": 0.0, 
        "optimizer": "scipy", 
        "p0": 0.5, 
        "p0d1s": -1.0, 
        "p0d2s": -1.0, 
        "p0exp": -1.0, 
        "p0u1s": -1.0, 
        "p0u2s": -1.0, 
        "p1": 0.5, 
        "seed": 0.0, 
        "sigma0": -1.0, 
        "sigma1": -1.0, 
        "upperLimit": -1.0, 
        "upperLimitEstimatedError": -1.0, 
        "xsec": -999007.0
    }, 
    {
        "CLs": 0.0071936573957555785, 
        "CLsexp": 0.007150288500884725, 
        "CPUtime": 0.0, 
        "DM": 800.0, 
        "LogDM": 2.9030899869919438, 
        "backend": "jax", 
        "clsd1s": 0.0007073938490933617, 
        "clsd2s": 6.011444801268076e-05, 
        "clsu1s": 0.05412371057857384, 
        "clsu2s": 0.2508793120109603, 
        "covqual": 3.0, 
        "dodgycov": 0.0, 
        "excludedXsec": -999007.0, 
        "expectedUpperLimit": -1.0, 
        "expectedUpperLimitMinus1Sig": -1.0, 
        "expectedUpperLimitMinus2Sig": -1.0, 
        "expectedUpperLimitPlus1Sig": -1.0, 
        "expectedUpperLimitPlus2Sig": -1.0, 
        "fID": -1.0, 
        "failedcov": 0.0, 
        "failedfit": 0.0, 
        "failedp0": 1.0, 
        "failedstatus": 0.0, 
        "fitstatus": 0.0, 
        "mLSP": 0.0, 
        "mNLSP": 800.0, 
        "mode": -1.0, 
        "nexp": -1.0, 
        "nofit": 0.0, 
        "optimizer": "scipy", 
        "p0": 0.5, 
        "p0d1s": -1.0, 
        "p0d2s": -1.0, 
        "p0exp": -1.0, 
        "p0u1s": -1.0, 
        "p0u2s": -1.0, 
        "p1": 0.5, 
        "seed": 0.0, 
        "sigma0": -1.0, 
        "sigma1": -1.0, 
        "upperLimit": -1.0, 
        "upperLimitEstimatedError": -1.0, 
        "xsec": -999007.0
    }, 
    {
        "CLs": 0.12770420492342113, 
        "CLsexp": 0.1299926808990079, 
        "CPUtime": 0.0, 
        "DM": 800.0, 
        "LogDM": 2.9030899869919438, 
        "backend": "jax", 
        "clsd1s": 0.037605494438953474, 
        "clsd2s": 0.009696550122269637, 
        "clsu1s": 0.3608274624499182, 
        "clsu2s": 0.7024509150616949, 
        "covqual": 3.0, 
        "dodgycov": 0.0, 
        "excludedXsec": -999007.0, 
        "expectedUpperLimit": -1.0, 
        "expectedUpperLimitMinus1Sig": -1.0, 
        "expectedUpperLimitMinus2Sig": -1.0, 
        "expectedUpperLimitPlus1Sig": -1.0, 
        "expectedUpperLimitPlus2Sig": -1.0, 
        "fID": -1.0, 
        "failedcov": 0.0, 
        "failedfit": 0.0, 
        "failedp0": 1.0, 
        "failedstatus": 0.0, 
        "fitstatus": 0.0, 
        "mLSP": 200.0, 
        "mNLSP": 1000.0, 
        "mode": -1.0, 
        "nexp": -1.0, 
        "nofit": 0.0, 
        "optimizer": "scipy", 
        "p0": 0.5, 
        "p0d1s": -1.0, 
        "p0d2s": -1.0, 
        "p0exp": -1.0, 
        "p0u1s": -1.0, 
        "p0u2s": -1.0, 
        "p1": 0.5, 
        "seed": 0.0, 
        "sigma0": -1.0, 
        "sigma1": -1.0, 
        "upperLimit": -1.0, 
        "upperLimitEstimatedError": -1.0, 
        "xsec": -999007.0
    }, 
    {
        "CLs": 0.015865288426007557, 
        "CLsexp": 0.015545209714472404, 
        "CPUtime": 0.0, 
        "DM": 600.0, 
        "LogDM": 2.7781512503836434, 
        "backend": "jax", 
        "clsd1s": 0.001977697019410941, 
        "clsd2s": 0.0002175051071406643, 
        "clsu1s": 0.09257568229501584, 
        "clsu2s": 0.34530985135036574, 
        "covqual": 3.0, 
        "dodgycov": 0.0, 
        "excludedXsec": -999007.0, 
        "expectedUpperLimit": -1.0, 
        "expectedUpperLimitMinus1Sig": -1.0, 
        "expectedUpperLimitMinus2Sig": -1.0, 
        "expectedUpperLimitPlus1Sig": -1.0, 
        "expectedUpperLimitPlus2Sig": -1.0, 
        "fID": -1.0, 
        "failedcov": 0.0, 
        "failedfit": 0.0, 
        "failedp0": 1.0, 
        "failedstatus": 0.0, 
        "fitstatus": 0.0, 
        "mLSP": 200.0, 
        "mNLSP": 800.0, 
        "mode": -1.0, 
        "nexp": -1.0, 
        "nofit": 0.0, 
        "optimizer": "scipy", 
        "p0": 0.5, 
        "p0d1s": -1.0, 
        "p0d2s": -1.0, 
        "p0exp": -1.0, 
        "p0u1s": -1.0, 
        "p0u2s": -1.0, 
        "p1": 0.5, 
        "seed": 0.0, 
        "sigma0": -1.0, 
        "sigma1": -1.0, 
        "upperLimit": -1.0, 
        "upperLimitEstimatedError": -1.0, 
        "xsec": -999007.0
    }, 
    {
        "CLs": 0.31490161447242576, 
        "CLsexp": 0.29481201178568317, 
        "CPUtime": 0.0, 
        "DM": 400.0, 
        "LogDM": 2.6020599913279625, 
        "backend": "jax", 
        "clsd1s": 0.12794056248983288, 
        "clsd2s": 0.050693896339723765, 
        "clsu1s": 0.5717134056735262, 
        "clsu2s": 0.8488585558130615, 
        "covqual": 3.0, 
        "dodgycov": 0.0, 
        "excludedXsec": -999007.0, 
        "expectedUpperLimit": -1.0, 
        "expectedUpperLimitMinus1Sig": -1.0, 
        "expectedUpperLimitMinus2Sig": -1.0, 
        "expectedUpperLimitPlus1Sig": -1.0, 
        "expectedUpperLimitPlus2Sig": -1.0, 
        "fID": -1.0, 
        "failedcov": 0.0, 
        "failedfit": 0.0, 
        "failedp0": 1.0, 
        "failedstatus": 0.0, 
        "fitstatus": 0.0, 
        "mLSP": 400.0, 
        "mNLSP": 800.0, 
        "mode": -1.0, 
        "nexp": -1.0, 
        "nofit": 0.0, 
        "optimizer": "scipy", 
        "p0": 0.5, 
        "p0d1s": -1.0, 
        "p0d2s": -1.0, 
        "p0exp": -1.0, 
        "p0u1s": -1.0, 
        "p0u2s": -1.0, 
        "p1": 0.5, 
        "seed": 0.0, 
        "sigma0": -1.0, 
        "sigma1": -1.0, 
        "upperLimit": -1.0, 
        "upperLimitEstimatedError": -1.0, 
        "xsec": -999007.0
    }, 
    {
        "CLs": 0.06300809416867485, 
        "CLsexp": 0.05993280760514027, 
        "CPUtime": 0.0, 
        "DM": 500.0, 
        "LogDM": 2.6989700043360187, 
        "backend": "jax", 
        "clsd1s": 0.012481593509025734, 
        "clsd2s": 0.0022836104631807153, 
        "clsu1s": 0.22473675655404948, 
        "clsu2s": 0.559988201454604, 
        "covqual": 3.0, 
        "dodgycov": 0.0, 
        "excludedXsec": -999007.0, 
        "expectedUpperLimit": -1.0, 
        "expectedUpperLimitMinus1Sig": -1.0, 
        "expectedUpperLimitMinus2Sig": -1.0, 
        "expectedUpperLimitPlus1Sig": -1.0, 
        "expectedUpperLimitPlus2Sig": -1.0, 
        "fID": -1.0, 
        "failedcov": 0.0, 
        "failedfit": 0.0, 
        "failedp0": 1.0, 
        "failedstatus": 0.0, 
        "fitstatus": 0.0, 
        "mLSP": 300.0, 
        "mNLSP": 800.0, 
        "mode": -1.0, 
        "nexp": -1.0, 
        "nofit": 0.0, 
        "optimizer": "scipy", 
        "p0": 0.5, 
        "p0d1s": -1.0, 
        "p0d2s": -1.0, 
        "p0exp": -1.0, 
        "p0u1s": -1.0, 
        "p0u2s": -1.0, 
        "p1": 0.5, 
        "seed": 0.0, 
        "sigma0": -1.0, 
        "sigma1": -1.0, 
        "upperLimit": -1.0, 
        "upperLimitEstimatedError": -1.0, 
        "xsec": -999007.0
    }, 
    {
        "CLs": 0.0030671247964566754, 
        "CLsexp": 0.003000847991644543, 
        "CPUtime": 0.0, 
        "DM": 700.0, 
        "LogDM": 2.845098040014257, 
        "backend": "jax", 
        "clsd1s": 0.0002287491478478363, 
        "clsd2s": 1.4894148442452784e-05, 
        "clsu1s": 0.02918435173095078, 
        "clsu2s": 0.17048796068708097, 
        "covqual": 3.0, 
        "dodgycov": 0.0, 
        "excludedXsec": -999007.0, 
        "expectedUpperLimit": -1.0, 
        "expectedUpperLimitMinus1Sig": -1.0, 
        "expectedUpperLimitMinus2Sig": -1.0, 
        "expectedUpperLimitPlus1Sig": -1.0, 
        "expectedUpperLimitPlus2Sig": -1.0, 
        "fID": -1.0, 
        "failedcov": 0.0, 
        "failedfit": 0.0, 
        "failedp0": 1.0, 
        "failedstatus": 0.0, 
        "fitstatus": 0.0, 
        "mLSP": 0.0, 
        "mNLSP": 700.0, 
        "mode": -1.0, 
        "nexp": -1.0, 
        "nofit": 0.0, 
        "optimizer": "scipy", 
        "p0": 0.5, 
        "p0d1s": -1.0, 
        "p0d2s": -1.0, 
        "p0exp": -1.0, 
        "p0u1s": -1.0, 
        "p0u2s": -1.0, 
        "p1": 0.5, 
        "seed": 0.0, 
        "sigma0": -1.0, 
        "sigma1": -1.0, 
        "upperLimit": -1.0, 
        "upperLimitEstimatedError": -1.0, 
        "xsec": -999007.0
    }, 
    {
        "CLs": 0.46391944763472365, 
        "CLsexp": 0.4731095112561807, 
        "CPUtime": 0.0, 
        "DM": 1200.0, 
        "LogDM": 3.0791812460476247, 
        "backend": "jax", 
        "clsd1s": 0.2707153982374142, 
        "clsd2s": 0.1445954146540163, 
        "clsu1s": 0.72651216525789, 
        "clsu2s": 0.9211347521458204, 
        "covqual": 3.0, 
        "dodgycov": 0.0, 
        "excludedXsec": -999007.0, 
        "expectedUpperLimit": -1.0, 
        "expectedUpperLimitMinus1Sig": -1.0, 
        "expectedUpperLimitMinus2Sig": -1.0, 
        "expectedUpperLimitPlus1Sig": -1.0, 
        "expectedUpperLimitPlus2Sig": -1.0, 
        "fID": -1.0, 
        "failedcov": 0.0, 
        "failedfit": 0.0, 
        "failedp0": 1.0, 
        "failedstatus": 0.0, 
        "fitstatus": 0.0, 
        "mLSP": 0.0, 
        "mNLSP": 1200.0, 
        "mode": -1.0, 
        "nexp": -1.0, 
        "nofit": 0.0, 
        "optimizer": "scipy", 
        "p0": 0.5, 
        "p0d1s": -1.0, 
        "p0d2s": -1.0, 
        "p0exp": -1.0, 
        "p0u1s": -1.0, 
        "p0u2s": -1.0, 
        "p1": 0.5, 
        "seed": 0.0, 
        "sigma0": -1.0, 
        "sigma1": -1.0, 
        "upperLimit": -1.0, 
        "upperLimitEstimatedError": -1.0, 
        "xsec": -999007.0
    }, 
    {
        "CLs": 0.2188624389928699, 
        "CLsexp": 0.21937368188572814, 
        "CPUtime": 0.0, 
        "DM": 400.0, 
        "LogDM": 2.6020599913279625, 
        "backend": "jax", 
        "clsd1s": 0.08152108782594299, 
        "clsd2s": 0.02737872363920684, 
        "clsu1s": 0.487014662438172, 
        "clsu2s": 0.7980404877800936, 
        "covqual": 3.0, 
        "dodgycov": 0.0, 
        "excludedXsec": -999007.0, 
        "expectedUpperLimit": -1.0, 
        "expectedUpperLimitMinus1Sig": -1.0, 
        "expectedUpperLimitMinus2Sig": -1.0, 
        "expectedUpperLimitPlus1Sig": -1.0, 
        "expectedUpperLimitPlus2Sig": -1.0, 
        "fID": -1.0, 
        "failedcov": 0.0, 
        "failedfit": 0.0, 
        "failedp0": 1.0, 
        "failedstatus": 0.0, 
        "fitstatus": 0.0, 
        "mLSP": 0.0, 
        "mNLSP": 400.0, 
        "mode": -1.0, 
        "nexp": -1.0, 
        "nofit": 0.0, 
        "optimizer": "scipy", 
        "p0": 0.5, 
        "p0d1s": -1.0, 
        "p0d2s": -1.0, 
        "p0exp": -1.0, 
        "p0u1s": -1.0, 
        "p0u2s": -1.0, 
        "p1": 0.5, 
        "seed": 0.0, 
        "sigma0": -1.0, 
        "sigma1": -1.0, 
        "upperLimit": -1.0, 
        "upperLimitEstimatedError": -1.0, 
        "xsec": -999007.0
    }, 
    {
        "CLs": 0.4606598511980489, 
        "CLsexp": 0.47220060166861166, 
        "CPUtime": 0.0, 
        "DM": 900.0, 
        "LogDM": 2.9542425094393248, 
        "backend": "jax", 
        "clsd1s": 0.26986818340156893, 
        "clsd2s": 0.14395253895511412, 
        "clsu1s": 0.7258403266200004, 
        "clsu2s": 0.9208700928119659, 
        "covqual": 3.0, 
        "dodgycov": 0.0, 
        "excludedXsec": -999007.0, 
        "expectedUpperLimit": -1.0, 
        "expectedUpperLimitMinus1Sig": -1.0, 
        "expectedUpperLimitMinus2Sig": -1.0, 
        "expectedUpperLimitPlus1Sig": -1.0, 
        "expectedUpperLimitPlus2Sig": -1.0, 
        "fID": -1.0, 
        "failedcov": 0.0, 
        "failedfit": 0.0, 
        "failedp0": 1.0, 
        "failedstatus": 0.0, 
        "fitstatus": 0.0, 
        "mLSP": 300.0, 
        "mNLSP": 1200.0, 
        "mode": -1.0, 
        "nexp": -1.0, 
        "nofit": 0.0, 
        "optimizer": "scipy", 
        "p0": 0.5, 
        "p0d1s": -1.0, 
        "p0d2s": -1.0, 
        "p0exp": -1.0, 
        "p0u1s": -1.0, 
        "p0u2s": -1.0, 
        "p1": 0.5, 
        "seed": 0.0, 
        "sigma0": -1.0, 
        "sigma1": -1.0, 
        "upperLimit": -1.0, 
        "upperLimitEstimatedError": -1.0, 
        "xsec": -999007.0
    }, 
    {
        "CLs": 0.5169843332935186, 
        "CLsexp": 0.5265194006486287, 
        "CPUtime": 0.0, 
        "DM": 800.0, 
        "LogDM": 2.9030899869919438, 
        "backend": "jax", 
        "clsd1s": 0.3227123128945971, 
        "clsd2s": 0.18582886057248102, 
        "clsu1s": 0.7643336631902127, 
        "clsu2s": 0.9354167687104135, 
        "covqual": 3.0, 
        "dodgycov": 0.0, 
        "excludedXsec": -999007.0, 
        "expectedUpperLimit": -1.0, 
        "expectedUpperLimitMinus1Sig": -1.0, 
        "expectedUpperLimitMinus2Sig": -1.0, 
        "expectedUpperLimitPlus1Sig": -1.0, 
        "expectedUpperLimitPlus2Sig": -1.0, 
        "fID": -1.0, 
        "failedcov": 0.0, 
        "failedfit": 0.0, 
        "failedp0": 1.0, 
        "failedstatus": 0.0, 
        "fitstatus": 0.0, 
        "mLSP": 400.0, 
        "mNLSP": 1200.0, 
        "mode": -1.0, 
        "nexp": -1.0, 
        "nofit": 0.0, 
        "optimizer": "scipy", 
        "p0": 0.5, 
        "p0d1s": -1.0, 
        "p0d2s": -1.0, 
        "p0exp": -1.0, 
        "p0u1s": -1.0, 
        "p0u2s": -1.0, 
        "p1": 0.5, 
        "seed": 0.0, 
        "sigma0": -1.0, 
        "sigma1": -1.0, 
        "upperLimit": -1.0, 
        "upperLimitEstimatedError": -1.0, 
        "xsec": -999007.0
    }, 
    {
        "CLs": 0.038612079997726485, 
        "CLsexp": 0.03874421863618459, 
        "CPUtime": 0.0, 
        "DM": 900.0, 
        "LogDM": 2.9542425094393248, 
        "backend": "jax", 
        "clsd1s": 0.006816544613591517, 
        "clsd2s": 0.0010471162241725352, 
        "clsu1s": 0.1699779235308269, 
        "clsu2s": 0.48435244529051874, 
        "covqual": 3.0, 
        "dodgycov": 0.0, 
        "excludedXsec": -999007.0, 
        "expectedUpperLimit": -1.0, 
        "expectedUpperLimitMinus1Sig": -1.0, 
        "expectedUpperLimitMinus2Sig": -1.0, 
        "expectedUpperLimitPlus1Sig": -1.0, 
        "expectedUpperLimitPlus2Sig": -1.0, 
        "fID": -1.0, 
        "failedcov": 0.0, 
        "failedfit": 0.0, 
        "failedp0": 1.0, 
        "failedstatus": 0.0, 
        "fitstatus": 0.0, 
        "mLSP": 0.0, 
        "mNLSP": 900.0, 
        "mode": -1.0, 
        "nexp": -1.0, 
        "nofit": 0.0, 
        "optimizer": "scipy", 
        "p0": 0.5, 
        "p0d1s": -1.0, 
        "p0d2s": -1.0, 
        "p0exp": -1.0, 
        "p0u1s": -1.0, 
        "p0u2s": -1.0, 
        "p1": 0.5, 
        "seed": 0.0, 
        "sigma0": -1.0, 
        "sigma1": -1.0, 
        "upperLimit": -1.0, 
        "upperLimitEstimatedError": -1.0, 
        "xsec": -999007.0
    }, 
    {
        "CLs": 0.2005128179504309, 
        "CLsexp": 0.1865932724927103, 
        "CPUtime": 0.0, 
        "DM": 400.0, 
        "LogDM": 2.6020599913279625, 
        "backend": "jax", 
        "clsd1s": 0.06398061841827281, 
        "clsd2s": 0.01973266503545177, 
        "clsu1s": 0.444775611971904, 
        "clsu2s": 0.7690135298549421, 
        "covqual": 3.0, 
        "dodgycov": 0.0, 
        "excludedXsec": -999007.0, 
        "expectedUpperLimit": -1.0, 
        "expectedUpperLimitMinus1Sig": -1.0, 
        "expectedUpperLimitMinus2Sig": -1.0, 
        "expectedUpperLimitPlus1Sig": -1.0, 
        "expectedUpperLimitPlus2Sig": -1.0, 
        "fID": -1.0, 
        "failedcov": 0.0, 
        "failedfit": 0.0, 
        "failedp0": 1.0, 
        "failedstatus": 0.0, 
        "fitstatus": 0.0, 
        "mLSP": 300.0, 
        "mNLSP": 700.0, 
        "mode": -1.0, 
        "nexp": -1.0, 
        "nofit": 0.0, 
        "optimizer": "scipy", 
        "p0": 0.5, 
        "p0d1s": -1.0, 
        "p0d2s": -1.0, 
        "p0exp": -1.0, 
        "p0u1s": -1.0, 
        "p0u2s": -1.0, 
        "p1": 0.5, 
        "seed": 0.0, 
        "sigma0": -1.0, 
        "sigma1": -1.0, 
        "upperLimit": -1.0, 
        "upperLimitEstimatedError": -1.0, 
        "xsec": -999007.0
    }, 
    {
        "CLs": 0.4464609116398101, 
        "CLsexp": 0.4601392046650181, 
        "CPUtime": 0.0, 
        "DM": 1000.0, 
        "LogDM": 3.0, 
        "backend": "jax", 
        "clsd1s": 0.25874352758800667, 
        "clsd2s": 0.1355993918483266, 
        "clsu1s": 0.7168300154615899, 
        "clsu2s": 0.9172827415899621, 
        "covqual": 3.0, 
        "dodgycov": 0.0, 
        "excludedXsec": -999007.0, 
        "expectedUpperLimit": -1.0, 
        "expectedUpperLimitMinus1Sig": -1.0, 
        "expectedUpperLimitMinus2Sig": -1.0, 
        "expectedUpperLimitPlus1Sig": -1.0, 
        "expectedUpperLimitPlus2Sig": -1.0, 
        "fID": -1.0, 
        "failedcov": 0.0, 
        "failedfit": 0.0, 
        "failedp0": 1.0, 
        "failedstatus": 0.0, 
        "fitstatus": 0.0, 
        "mLSP": 200.0, 
        "mNLSP": 1200.0, 
        "mode": -1.0, 
        "nexp": -1.0, 
        "nofit": 0.0, 
        "optimizer": "scipy", 
        "p0": 0.5, 
        "p0d1s": -1.0, 
        "p0d2s": -1.0, 
        "p0exp": -1.0, 
        "p0u1s": -1.0, 
        "p0u2s": -1.0, 
        "p1": 0.5, 
        "seed": 0.0, 
        "sigma0": -1.0, 
        "sigma1": -1.0, 
        "upperLimit": -1.0, 
        "upperLimitEstimatedError": -1.0, 
        "xsec": -999007.0
    }, 
    {
        "CLs": 0.4937984690837237, 
        "CLsexp": 0.4656645537916475, 
        "CPUtime": 0.0, 
        "DM": 400.0, 
        "LogDM": 2.6020599913279625, 
        "backend": "jax", 
        "clsd1s": 0.2638125345042617, 
        "clsd2s": 0.13938512090697386, 
        "clsu1s": 0.7209797147063787, 
        "clsu2s": 0.9189436831842883, 
        "covqual": 3.0, 
        "dodgycov": 0.0, 
        "excludedXsec": -999007.0, 
        "expectedUpperLimit": -1.0, 
        "expectedUpperLimitMinus1Sig": -1.0, 
        "expectedUpperLimitMinus2Sig": -1.0, 
        "expectedUpperLimitPlus1Sig": -1.0, 
        "expectedUpperLimitPlus2Sig": -1.0, 
        "fID": -1.0, 
        "failedcov": 0.0, 
        "failedfit": 0.0, 
        "failedp0": 1.0, 
        "failedstatus": 0.0, 
        "fitstatus": 0.0, 
        "mLSP": 500.0, 
        "mNLSP": 900.0, 
        "mode": -1.0, 
        "nexp": -1.0, 
        "nofit": 0.0, 
        "optimizer": "scipy", 
        "p0": 0.5, 
        "p0d1s": -1.0, 
        "p0d2s": -1.0, 
        "p0exp": -1.0, 
        "p0u1s": -1.0, 
        "p0u2s": -1.0, 
        "p1": 0.5, 
        "seed": 0.0, 
        "sigma0": -1.0, 
        "sigma1": -1.0, 
        "upperLimit": -1.0, 
        "upperLimitEstimatedError": -1.0, 
        "xsec": -999007.0
    }, 
    {
        "CLs": 0.7454370137022498, 
        "CLsexp": 0.7163825893554294, 
        "CPUtime": 0.0, 
        "DM": 300.0, 
        "LogDM": 2.4771212547196626, 
        "backend": "jax", 
        "clsd1s": 0.5445414988074618, 
        "clsd2s": 0.3980881945112085, 
        "clsu1s": 0.8769777786425301, 
        "clsu2s": 0.9712497262669487, 
        "covqual": 3.0, 
        "dodgycov": 0.0, 
        "excludedXsec": -999007.0, 
        "expectedUpperLimit": -1.0, 
        "expectedUpperLimitMinus1Sig": -1.0, 
        "expectedUpperLimitMinus2Sig": -1.0, 
        "expectedUpperLimitPlus1Sig": -1.0, 
        "expectedUpperLimitPlus2Sig": -1.0, 
        "fID": -1.0, 
        "failedcov": 0.0, 
        "failedfit": 0.0, 
        "failedp0": 1.0, 
        "failedstatus": 0.0, 
        "fitstatus": 0.0, 
        "mLSP": 400.0, 
        "mNLSP": 700.0, 
        "mode": -1.0, 
        "nexp": -1.0, 
        "nofit": 0.0, 
        "optimizer": "scipy", 
        "p0": 0.5, 
        "p0d1s": -1.0, 
        "p0d2s": -1.0, 
        "p0exp": -1.0, 
        "p0u1s": -1.0, 
        "p0u2s": -1.0, 
        "p1": 0.5, 
        "seed": 0.0, 
        "sigma0": -1.0, 
        "sigma1": -1.0, 
        "upperLimit": -1.0, 
        "upperLimitEstimatedError": -1.0, 
        "xsec": -999007.0
    }, 
    {
        "CLs": 0.26809467510372803, 
        "CLsexp": 0.28061107913242267, 
        "CPUtime": 0.0, 
        "DM": 900.0, 
        "LogDM": 2.9542425094393248, 
        "backend": "jax", 
        "clsd1s": 0.1185657716766857, 
        "clsd2s": 0.04565538412066107, 
        "clsu1s": 0.5568907937596028, 
        "clsu2s": 0.8406125054194113, 
        "covqual": 3.0, 
        "dodgycov": 0.0, 
        "excludedXsec": -999007.0, 
        "expectedUpperLimit": -1.0, 
        "expectedUpperLimitMinus1Sig": -1.0, 
        "expectedUpperLimitMinus2Sig": -1.0, 
        "expectedUpperLimitPlus1Sig": -1.0, 
        "expectedUpperLimitPlus2Sig": -1.0, 
        "fID": -1.0, 
        "failedcov": 0.0, 
        "failedfit": 0.0, 
        "failedp0": 1.0, 
        "failedstatus": 0.0, 
        "fitstatus": 0.0, 
        "mLSP": 200.0, 
        "mNLSP": 1100.0, 
        "mode": -1.0, 
        "nexp": -1.0, 
        "nofit": 0.0, 
        "optimizer": "scipy", 
        "p0": 0.5, 
        "p0d1s": -1.0, 
        "p0d2s": -1.0, 
        "p0exp": -1.0, 
        "p0u1s": -1.0, 
        "p0u2s": -1.0, 
        "p1": 0.5, 
        "seed": 0.0, 
        "sigma0": -1.0, 
        "sigma1": -1.0, 
        "upperLimit": -1.0, 
        "upperLimitEstimatedError": -1.0, 
        "xsec": -999007.0
    }, 
    {
        "CLs": 0.28308651307851973, 
        "CLsexp": 0.2919687299809772, 
        "CPUtime": 0.0, 
        "DM": 1000.0, 
        "LogDM": 3.0, 
        "backend": "jax", 
        "clsd1s": 0.12604005639008636, 
        "clsd2s": 0.049659753505628394, 
        "clsu1s": 0.5687825865863941, 
        "clsu2s": 0.8472485132015871, 
        "covqual": 3.0, 
        "dodgycov": 0.0, 
        "excludedXsec": -999007.0, 
        "expectedUpperLimit": -1.0, 
        "expectedUpperLimitMinus1Sig": -1.0, 
        "expectedUpperLimitMinus2Sig": -1.0, 
        "expectedUpperLimitPlus1Sig": -1.0, 
        "expectedUpperLimitPlus2Sig": -1.0, 
        "fID": -1.0, 
        "failedcov": 0.0, 
        "failedfit": 0.0, 
        "failedp0": 1.0, 
        "failedstatus": 0.0, 
        "fitstatus": 0.0, 
        "mLSP": 100.0, 
        "mNLSP": 1100.0, 
        "mode": -1.0, 
        "nexp": -1.0, 
        "nofit": 0.0, 
        "optimizer": "scipy", 
        "p0": 0.5, 
        "p0d1s": -1.0, 
        "p0d2s": -1.0, 
        "p0exp": -1.0, 
        "p0u1s": -1.0, 
        "p0u2s": -1.0, 
        "p1": 0.5, 
        "seed": 0.0, 
        "sigma0": -1.0, 
        "sigma1": -1.0, 
        "upperLimit": -1.0, 
        "upperLimitEstimatedError": -1.0, 
        "xsec": -999007.0
    }, 
    {
        "CLs": 0.45535376135933703, 
        "CLsexp": 0.46919311313324896, 
        "CPUtime": 0.0, 
        "DM": 1100.0, 
        "LogDM": 3.041392685158225, 
        "backend": "jax", 
        "clsd1s": 0.26707373588917516, 
        "clsd2s": 0.14183880993928688, 
        "clsu1s": 0.7236101977976017, 
        "clsu2s": 0.9199887707268001, 
        "covqual": 3.0, 
        "dodgycov": 0.0, 
        "excludedXsec": -999007.0, 
        "expectedUpperLimit": -1.0, 
        "expectedUpperLimitMinus1Sig": -1.0, 
        "expectedUpperLimitMinus2Sig": -1.0, 
        "expectedUpperLimitPlus1Sig": -1.0, 
        "expectedUpperLimitPlus2Sig": -1.0, 
        "fID": -1.0, 
        "failedcov": 0.0, 
        "failedfit": 0.0, 
        "failedp0": 1.0, 
        "failedstatus": 0.0, 
        "fitstatus": 0.0, 
        "mLSP": 100.0, 
        "mNLSP": 1200.0, 
        "mode": -1.0, 
        "nexp": -1.0, 
        "nofit": 0.0, 
        "optimizer": "scipy", 
        "p0": 0.5, 
        "p0d1s": -1.0, 
        "p0d2s": -1.0, 
        "p0exp": -1.0, 
        "p0u1s": -1.0, 
        "p0u2s": -1.0, 
        "p1": 0.5, 
        "seed": 0.0, 
        "sigma0": -1.0, 
        "sigma1": -1.0, 
        "upperLimit": -1.0, 
        "upperLimitEstimatedError": -1.0, 
        "xsec": -999007.0
    }, 
    {
        "CLs": 0.036184384217977775, 
        "CLsexp": 0.03730073992323619, 
        "CPUtime": 0.0, 
        "DM": 800.0, 
        "LogDM": 2.9030899869919438, 
        "backend": "jax", 
        "clsd1s": 0.006469982330818675, 
        "clsd2s": 0.0009793799220106987, 
        "clsu1s": 0.1658353968028249, 
        "clsu2s": 0.4780165660869493, 
        "covqual": 3.0, 
        "dodgycov": 0.0, 
        "excludedXsec": -999007.0, 
        "expectedUpperLimit": -1.0, 
        "expectedUpperLimitMinus1Sig": -1.0, 
        "expectedUpperLimitMinus2Sig": -1.0, 
        "expectedUpperLimitPlus1Sig": -1.0, 
        "expectedUpperLimitPlus2Sig": -1.0, 
        "fID": -1.0, 
        "failedcov": 0.0, 
        "failedfit": 0.0, 
        "failedp0": 1.0, 
        "failedstatus": 0.0, 
        "fitstatus": 0.0, 
        "mLSP": 100.0, 
        "mNLSP": 900.0, 
        "mode": -1.0, 
        "nexp": -1.0, 
        "nofit": 0.0, 
        "optimizer": "scipy", 
        "p0": 0.5, 
        "p0d1s": -1.0, 
        "p0d2s": -1.0, 
        "p0exp": -1.0, 
        "p0u1s": -1.0, 
        "p0u2s": -1.0, 
        "p1": 0.5, 
        "seed": 0.0, 
        "sigma0": -1.0, 
        "sigma1": -1.0, 
        "upperLimit": -1.0, 
        "upperLimitEstimatedError": -1.0, 
        "xsec": -999007.0
    }, 
    {
        "CLs": 0.3966527944536807, 
        "CLsexp": 0.3900271679888744, 
        "CPUtime": 0.0, 
        "DM": 500.0, 
        "LogDM": 2.6989700043360187, 
        "backend": "jax", 
        "clsd1s": 0.19837558188245574, 
        "clsd2s": 0.09323425703852847, 
        "clsu1s": 0.6606573900698006, 
        "clsu2s": 0.893268778849921, 
        "covqual": 3.0, 
        "dodgycov": 0.0, 
        "excludedXsec": -999007.0, 
        "expectedUpperLimit": -1.0, 
        "expectedUpperLimitMinus1Sig": -1.0, 
        "expectedUpperLimitMinus2Sig": -1.0, 
        "expectedUpperLimitPlus1Sig": -1.0, 
        "expectedUpperLimitPlus2Sig": -1.0, 
        "fID": -1.0, 
        "failedcov": 0.0, 
        "failedfit": 0.0, 
        "failedp0": 1.0, 
        "failedstatus": 0.0, 
        "fitstatus": 0.0, 
        "mLSP": 500.0, 
        "mNLSP": 1000.0, 
        "mode": -1.0, 
        "nexp": -1.0, 
        "nofit": 0.0, 
        "optimizer": "scipy", 
        "p0": 0.5, 
        "p0d1s": -1.0, 
        "p0d2s": -1.0, 
        "p0exp": -1.0, 
        "p0u1s": -1.0, 
        "p0u2s": -1.0, 
        "p1": 0.5, 
        "seed": 0.0, 
        "sigma0": -1.0, 
        "sigma1": -1.0, 
        "upperLimit": -1.0, 
        "upperLimitEstimatedError": -1.0, 
        "xsec": -999007.0
    }, 
    {
        "CLs": 0.25598336594337856, 
        "CLsexp": 0.26315497444847213, 
        "CPUtime": 0.0, 
        "DM": 1100.0, 
        "LogDM": 3.041392685158225, 
        "backend": "jax", 
        "clsd1s": 0.10744493170958823, 
        "clsd2s": 0.03988710472298764, 
        "clsu1s": 0.5380094841835604, 
        "clsu2s": 0.829726896977773, 
        "covqual": 3.0, 
        "dodgycov": 0.0, 
        "excludedXsec": -999007.0, 
        "expectedUpperLimit": -1.0, 
        "expectedUpperLimitMinus1Sig": -1.0, 
        "expectedUpperLimitMinus2Sig": -1.0, 
        "expectedUpperLimitPlus1Sig": -1.0, 
        "expectedUpperLimitPlus2Sig": -1.0, 
        "fID": -1.0, 
        "failedcov": 0.0, 
        "failedfit": 0.0, 
        "failedp0": 1.0, 
        "failedstatus": 0.0, 
        "fitstatus": 0.0, 
        "mLSP": 0.0, 
        "mNLSP": 1100.0, 
        "mode": -1.0, 
        "nexp": -1.0, 
        "nofit": 0.0, 
        "optimizer": "scipy", 
        "p0": 0.5, 
        "p0d1s": -1.0, 
        "p0d2s": -1.0, 
        "p0exp": -1.0, 
        "p0u1s": -1.0, 
        "p0u2s": -1.0, 
        "p1": 0.5, 
        "seed": 0.0, 
        "sigma0": -1.0, 
        "sigma1": -1.0, 
        "upperLimit": -1.0, 
        "upperLimitEstimatedError": -1.0, 
        "xsec": -999007.0
    }, 
    {
        "CLs": 0.004561645272411038, 
        "CLsexp": 0.004146714709473588, 
        "CPUtime": 0.0, 
        "DM": 600.0, 
        "LogDM": 2.7781512503836434, 
        "backend": "jax", 
        "clsd1s": 0.000347552110601946, 
        "clsd2s": 2.4929814124579795e-05, 
        "clsu1s": 0.036805572176137655, 
        "clsu2s": 0.1975250672720096, 
        "covqual": 3.0, 
        "dodgycov": 0.0, 
        "excludedXsec": -999007.0, 
        "expectedUpperLimit": -1.0, 
        "expectedUpperLimitMinus1Sig": -1.0, 
        "expectedUpperLimitMinus2Sig": -1.0, 
        "expectedUpperLimitPlus1Sig": -1.0, 
        "expectedUpperLimitPlus2Sig": -1.0, 
        "fID": -1.0, 
        "failedcov": 0.0, 
        "failedfit": 0.0, 
        "failedp0": 1.0, 
        "failedstatus": 0.0, 
        "fitstatus": 0.0, 
        "mLSP": 100.0, 
        "mNLSP": 700.0, 
        "mode": -1.0, 
        "nexp": -1.0, 
        "nofit": 0.0, 
        "optimizer": "scipy", 
        "p0": 0.5, 
        "p0d1s": -1.0, 
        "p0d2s": -1.0, 
        "p0exp": -1.0, 
        "p0u1s": -1.0, 
        "p0u2s": -1.0, 
        "p1": 0.5, 
        "seed": 0.0, 
        "sigma0": -1.0, 
        "sigma1": -1.0, 
        "upperLimit": -1.0, 
        "upperLimitEstimatedError": -1.0, 
        "xsec": -999007.0
    }, 
    {
        "CLs": 0.12093073363389541, 
        "CLsexp": 0.12405114420730305, 
        "CPUtime": 0.0, 
        "DM": 1000.0, 
        "LogDM": 3.0, 
        "backend": "jax", 
        "clsd1s": 0.03513633405105103, 
        "clsd2s": 0.008861176174388523, 
        "clsu1s": 0.35097633479422297, 
        "clsu2s": 0.6937458588701922, 
        "covqual": 3.0, 
        "dodgycov": 0.0, 
        "excludedXsec": -999007.0, 
        "expectedUpperLimit": -1.0, 
        "expectedUpperLimitMinus1Sig": -1.0, 
        "expectedUpperLimitMinus2Sig": -1.0, 
        "expectedUpperLimitPlus1Sig": -1.0, 
        "expectedUpperLimitPlus2Sig": -1.0, 
        "fID": -1.0, 
        "failedcov": 0.0, 
        "failedfit": 0.0, 
        "failedp0": 1.0, 
        "failedstatus": 0.0, 
        "fitstatus": 0.0, 
        "mLSP": 0.0, 
        "mNLSP": 1000.0, 
        "mode": -1.0, 
        "nexp": -1.0, 
        "nofit": 0.0, 
        "optimizer": "scipy", 
        "p0": 0.5, 
        "p0d1s": -1.0, 
        "p0d2s": -1.0, 
        "p0exp": -1.0, 
        "p0u1s": -1.0, 
        "p0u2s": -1.0, 
        "p1": 0.5, 
        "seed": 0.0, 
        "sigma0": -1.0, 
        "sigma1": -1.0, 
        "upperLimit": -1.0, 
        "upperLimitEstimatedError": -1.0, 
        "xsec": -999007.0
    }, 
    {
        "CLs": 0.271983074876446, 
        "CLsexp": 0.27747403989802255, 
        "CPUtime": 0.0, 
        "DM": 600.0, 
        "LogDM": 2.7781512503836434, 
        "backend": "jax", 
        "clsd1s": 0.11653446133394804, 
        "clsd2s": 0.044584617249702564, 
        "clsu1s": 0.5535528231543431, 
        "clsu2s": 0.8387196182018436, 
        "covqual": 3.0, 
        "dodgycov": 0.0, 
        "excludedXsec": -999007.0, 
        "expectedUpperLimit": -1.0, 
        "expectedUpperLimitMinus1Sig": -1.0, 
        "expectedUpperLimitMinus2Sig": -1.0, 
        "expectedUpperLimitPlus1Sig": -1.0, 
        "expectedUpperLimitPlus2Sig": -1.0, 
        "fID": -1.0, 
        "failedcov": 0.0, 
        "failedfit": 0.0, 
        "failedp0": 1.0, 
        "failedstatus": 0.0, 
        "fitstatus": 0.0, 
        "mLSP": 400.0, 
        "mNLSP": 1000.0, 
        "mode": -1.0, 
        "nexp": -1.0, 
        "nofit": 0.0, 
        "optimizer": "scipy", 
        "p0": 0.5, 
        "p0d1s": -1.0, 
        "p0d2s": -1.0, 
        "p0exp": -1.0, 
        "p0u1s": -1.0, 
        "p0u2s": -1.0, 
        "p1": 0.5, 
        "seed": 0.0, 
        "sigma0": -1.0, 
        "sigma1": -1.0, 
        "upperLimit": -1.0, 
        "upperLimitEstimatedError": -1.0, 
        "xsec": -999007.0
    }, 
    {
        "CLs": 0.17897606150709996, 
        "CLsexp": 0.1814108426840867, 
        "CPUtime": 0.0, 
        "DM": 700.0, 
        "LogDM": 2.845098040014257, 
        "backend": "jax", 
        "clsd1s": 0.061356848939931485, 
        "clsd2s": 0.01865126257617892, 
        "clsu1s": 0.437722720802325, 
        "clsu2s": 0.7638980341608991, 
        "covqual": 3.0, 
        "dodgycov": 0.0, 
        "excludedXsec": -999007.0, 
        "expectedUpperLimit": -1.0, 
        "expectedUpperLimitMinus1Sig": -1.0, 
        "expectedUpperLimitMinus2Sig": -1.0, 
        "expectedUpperLimitPlus1Sig": -1.0, 
        "expectedUpperLimitPlus2Sig": -1.0, 
        "fID": -1.0, 
        "failedcov": 0.0, 
        "failedfit": 0.0, 
        "failedp0": 1.0, 
        "failedstatus": 0.0, 
        "fitstatus": 0.0, 
        "mLSP": 300.0, 
        "mNLSP": 1000.0, 
        "mode": -1.0, 
        "nexp": -1.0, 
        "nofit": 0.0, 
        "optimizer": "scipy", 
        "p0": 0.5, 
        "p0d1s": -1.0, 
        "p0d2s": -1.0, 
        "p0exp": -1.0, 
        "p0u1s": -1.0, 
        "p0u2s": -1.0, 
        "p1": 0.5, 
        "seed": 0.0, 
        "sigma0": -1.0, 
        "sigma1": -1.0, 
        "upperLimit": -1.0, 
        "upperLimitEstimatedError": -1.0, 
        "xsec": -999007.0
    }, 
    {
        "CLs": 0.024327789534903936, 
        "CLsexp": 0.021331940159145538, 
        "CPUtime": 0.0, 
        "DM": 500.0, 
        "LogDM": 2.6989700043360187, 
        "backend": "jax", 
        "clsd1s": 0.003024748745628629, 
        "clsd2s": 0.00037190888109386, 
        "clsu1s": 0.1146360004203987, 
        "clsu2s": 0.39018085134804986, 
        "covqual": 3.0, 
        "dodgycov": 0.0, 
        "excludedXsec": -999007.0, 
        "expectedUpperLimit": -1.0, 
        "expectedUpperLimitMinus1Sig": -1.0, 
        "expectedUpperLimitMinus2Sig": -1.0, 
        "expectedUpperLimitPlus1Sig": -1.0, 
        "expectedUpperLimitPlus2Sig": -1.0, 
        "fID": -1.0, 
        "failedcov": 0.0, 
        "failedfit": 0.0, 
        "failedp0": 1.0, 
        "failedstatus": 0.0, 
        "fitstatus": 0.0, 
        "mLSP": 200.0, 
        "mNLSP": 700.0, 
        "mode": -1.0, 
        "nexp": -1.0, 
        "nofit": 0.0, 
        "optimizer": "scipy", 
        "p0": 0.5, 
        "p0d1s": -1.0, 
        "p0d2s": -1.0, 
        "p0exp": -1.0, 
        "p0u1s": -1.0, 
        "p0u2s": -1.0, 
        "p1": 0.5, 
        "seed": 0.0, 
        "sigma0": -1.0, 
        "sigma1": -1.0, 
        "upperLimit": -1.0, 
        "upperLimitEstimatedError": -1.0, 
        "xsec": -999007.0
    }, 
    {
        "CLs": 0.10248646512372545, 
        "CLsexp": 0.10048238669442378, 
        "CPUtime": 0.0, 
        "DM": 600.0, 
        "LogDM": 2.7781512503836434, 
        "backend": "jax", 
        "clsd1s": 0.025934131570094297, 
        "clsd2s": 0.0059336471294149425, 
        "clsu1s": 0.3093475828661154, 
        "clsu2s": 0.6545244537885168, 
        "covqual": 3.0, 
        "dodgycov": 0.0, 
        "excludedXsec": -999007.0, 
        "expectedUpperLimit": -1.0, 
        "expectedUpperLimitMinus1Sig": -1.0, 
        "expectedUpperLimitMinus2Sig": -1.0, 
        "expectedUpperLimitPlus1Sig": -1.0, 
        "expectedUpperLimitPlus2Sig": -1.0, 
        "fID": -1.0, 
        "failedcov": 0.0, 
        "failedfit": 0.0, 
        "failedp0": 1.0, 
        "failedstatus": 0.0, 
        "fitstatus": 0.0, 
        "mLSP": 300.0, 
        "mNLSP": 900.0, 
        "mode": -1.0, 
        "nexp": -1.0, 
        "nofit": 0.0, 
        "optimizer": "scipy", 
        "p0": 0.5, 
        "p0d1s": -1.0, 
        "p0d2s": -1.0, 
        "p0exp": -1.0, 
        "p0u1s": -1.0, 
        "p0u2s": -1.0, 
        "p1": 0.5, 
        "seed": 0.0, 
        "sigma0": -1.0, 
        "sigma1": -1.0, 
        "upperLimit": -1.0, 
        "upperLimitEstimatedError": -1.0, 
        "xsec": -999007.0
    }, 
    {
        "CLs": 0.1118451073883168, 
        "CLsexp": 0.1158587369083095, 
        "CPUtime": 0.0, 
        "DM": 900.0, 
        "LogDM": 2.9542425094393248, 
        "backend": "jax", 
        "clsd1s": 0.031829166388520236, 
        "clsd2s": 0.007774239543818202, 
        "clsu1s": 0.3369924842097371, 
        "clsu2s": 0.6810236441364821, 
        "covqual": 3.0, 
        "dodgycov": 0.0, 
        "excludedXsec": -999007.0, 
        "expectedUpperLimit": -1.0, 
        "expectedUpperLimitMinus1Sig": -1.0, 
        "expectedUpperLimitMinus2Sig": -1.0, 
        "expectedUpperLimitPlus1Sig": -1.0, 
        "expectedUpperLimitPlus2Sig": -1.0, 
        "fID": -1.0, 
        "failedcov": 0.0, 
        "failedfit": 0.0, 
        "failedp0": 1.0, 
        "failedstatus": 0.0, 
        "fitstatus": 0.0, 
        "mLSP": 100.0, 
        "mNLSP": 1000.0, 
        "mode": -1.0, 
        "nexp": -1.0, 
        "nofit": 0.0, 
        "optimizer": "scipy", 
        "p0": 0.5, 
        "p0d1s": -1.0, 
        "p0d2s": -1.0, 
        "p0exp": -1.0, 
        "p0u1s": -1.0, 
        "p0u2s": -1.0, 
        "p1": 0.5, 
        "seed": 0.0, 
        "sigma0": -1.0, 
        "sigma1": -1.0, 
        "upperLimit": -1.0, 
        "upperLimitEstimatedError": -1.0, 
        "xsec": -999007.0
    }
]