Combining 400_200
Observed CL_s:  7.996245709113288e-06
Expected CL_s (-2 sigma), (-1  sigma), median, (1 sigma), (2 sigma):  [array(5.55687097e-12), array(8.38347952e-10), array(1.05265932e-07), array(9.38287273e-06), array(0.00046489)]
