Combining 600_100
Observed CL_s:  4.496217449034932e-09
Expected CL_s (-2 sigma), (-1  sigma), median, (1 sigma), (2 sigma):  [array(2.32135243e-15), array(9.18506342e-13), array(3.00950466e-10), array(6.94681503e-08), array(8.80645923e-06)]
