Combining 500_250
Observed CL_s:  9.130352382861069e-05
Expected CL_s (-2 sigma), (-1  sigma), median, (1 sigma), (2 sigma):  [array(1.96808257e-08), array(9.27755716e-07), array(3.67517319e-05), array(0.00104949), array(0.01709881)]
