Combining 700_400
Observed CL_s: 0.020155863093759843
Expected CL_s (-2 sigma), (-1  sigma), median, (1 sigma), (2 sigma): [array(0.00045573), array(0.00355074), array(0.02401944), array(0.12409864), array(0.40794026)]
