Combining 400_100
Observed CL_s:  5.452463957796624e-16
Expected CL_s (-2 sigma), (-1  sigma), median, (1 sigma), (2 sigma):  [array(3.85109281e-25), array(1.55607632e-21), array(5.17066959e-18), array(1.19865838e-14), array(1.50425808e-11)]
